02761B_BROWN_0,1
02761B_FOWN_0,0
02761B_MAHROON_0,1
02761B_WHITE_0,0
02959B_BLACK_0,2
02959B_BROWN_0,2
02959B_BROWN J_0,1
02959B_FOWN_0,2
02959B_FOWN J_0,1
02959B_GRAY_0,0
02959B_GREEN_0,1
02959B_MAHROON_0,1
02959B_MASTARD_0,2
02959B_YELLOW_0,3
03171B_BLACK_0,1
03171B_BROWN_0,2
03171B_BROWN J_0,1
03171B_FOWN_0,2
03171B_FOWN J_0,1
03171B_GOLDEN_0,2
03171B_GREEN_0,2
03171B_MAHROON_0,1
03171B_MASTARD_0,1
03171B_ORANGE_0,1
03171B_SILVER_0,1
03171B_WHITE_0,1
03171B_YELLOW_0,2
03495B_BLACK_0,0
03495B_BROWN_0,2
03495B_FOWN_0,0
03495B_GRAY_0,0
03495B_MASTARD_0,0
03495B_SILVER_0,0
03532B_BROWN_0,0
03532B_GOLDEN_0,0
03532B_MAHROON_0,0
03533B_BLACK_0,1
03533B_BLUE_0,1
03533B_BROWN_0,2
03533B_FOWN_0,0
03596B_BLACK_0,0
03596B_FOWN_0,0
03596B_ORANGE_0,2
03612B_BLACK_0,1
03612B_BROWN_0,0
03612B_FOWN_0,0
03612B_MAHROON_0,0
03613B_BLUE_0,0
03616B_BROWN_0,0
03618B_BLACK_0,2
03618B_BROWN J_0,0
03618B_FOWN_0,1
03618B_MASTARD_0,1
03618B_ORANGE_0,1
03618B_WHITE_0,2
03620B_BLACK_0,0
03620B_BROWN_0,0
03620B_SILVER_0,0
03705B_BLACK_0,1
03705B_BROWN J_0,2
03705B_FOWN_0,1
03705B_GREEN_0,2
03705B_LEMON_0,0
03705B_MAHROON_0,1
03705B_ORANGE_0,0
03705B_WHITE_0,1
03731B_BLACK_0,1
03731B_BROWN_0,2
03731B_FOWN_0,1
03731B_MAHROON_0,3
03732B_BLACK_0,1
03732B_ORANGE_0,2
03732B_RED_0,0
03732B_YELLOW_0,0
03777B_BLACK_0,0
03777B_BLUE_0,1
03777B_BROWN_0,1
03777B_FOWN_0,0
03780B_BLACK_0,1
03787B_BLACK_0,0
03787B_BLUE_0,1
03787B_BROWN_0,1
03787B_FOWN_0,0
03787B_GREEN_0,1
03787B_MASTARD_0,0
03817B_BLACK_0,0
03817B_FOWN_0,0
03817B_GREY_0,0
03819B_BEIGE_0,0
03819B_BLUE_0,0
03819B_MASTARD_0,0
03819B_RED_0,0
03845B_BLACK_0,1
03845B_BLUE_0,0
03845B_FOWN_0,1
03848B_BLACK_0,1
03848B_BROWN_0,1
03848B_GOLDEN_0,0
03864B_BLACK_0,1
03864B_FOWN_0,0
03864B_WHITE_0,0
03865B_BLACK_0,0
03865B_GOLDEN_0,0
03865B_PINK_0,1
03865B_RED_0,3
03865B_WHITE_0,0
03866B_BLACK_0,0
03866B_GOLDEN_0,2
03866B_PINK_0,1
03866B_RED_0,2
03866B_WHITE_0,0
03867B_BLACK_0,0
03867B_BROWN_0,0
03867B_FOWN_0,0
03867B_GOLDEN_0,0
03872B_BLACK_0,1
03883B_BLACK_0,1
03883B_BLUE_0,1
03883B_BROWN_0,0
03883B_FOWN_0,1
03883B_MAHROON_0,1
03887B_BLACK_0,0
03887B_BROWN_0,3
03887B_BROWN J_0,0
03887B_FOWN_0,1
03887B_WHITE_0,1
03893B_BROWN_0,2
03893B_FOWN_0,0
03899B_FOWN_0,0
03899B_GRAY_0,1
03899B_PEACH_0,0
03899B_WHITE_0,1
03900B_BLACK_0,0
03900B_BROWN_0,1
03900B_FOWN_0,0
03900B_WHITE_0,0
03925B_BLACK_0,2
03925B_FOWN_0,0
03925B_MASTARD_0,0
03926B_BLACK_0,2
03926B_BROWN_0,1
03926B_FOWN_0,2
03926B_MAHROON_0,1
03926B_WHITE_0,0
03930B_FEROZI_0,1
03930B_GOLDEN_0,0
03930B_GREEN_0,0
03930B_MAHROON_0,0
03945B_BROWN_0,1
03945B_FOWN_0,3
03945B_GRAY_0,2
03945B_GREEN_0,4
03945B_WHITE_0,3
03972B_BLACK_0,0
03972B_BROWN_0,0
03972B_FOWN_0,0
03972B_GOLDEN_0,0
03972B_RED_0,1
03972B_SILVER_0,0
04007B_BLUE_0,2
04007B_GOLDEN_0,0
04007B_GRAY_0,0
04007B_GREEN_0,2
04007B_MAHROON_0,0
12589B_BLACK_0,1
12589B_BLUE_0,2
12589B_BROWN_0,2
12589B_MAHROON_0,2
12589B_RED_0,1
12593B_BLACK_0,1
12593B_BLUE_0,1
12593B_BROWN_0,1
12593B_MAHROON_0,1
12593B_RED_0,0
12693B_BLACK_0,0
12693B_BLUE_0,0
12693B_MAHROON_0,0
12693B_RED_0,0
12694B_BLACK_0,0
12694B_BLUE_0,0
12694B_BROWN_0,0
12694B_MAHROON_0,0
12694B_RED_0,0
12771B_BLACK_0,2
12771B_BROWN_0,1
12771B_GOLDEN_0,0
12771B_GREEN_0,1
12771B_PEACH_0,0
12771B_PINK_0,0
12771B_RED_0,0
12785B_GOLDEN_0,0
12785B_GRAY_0,0
12896B_BLACK_0,1
12896B_GRAY_0,1
12896B_GREEN_0,2
12899B_BLACK_0,1
12899B_GOLDEN_0,0
12904B_BLACK_0,0
12904B_BLUE_0,0
12904B_MASTARD_0,0
12904B_PURPLE_0,0
12905B_BLACK_0,1
12905B_BLUE_0,1
12905B_MASTARD_0,0
12905B_PURPLE_0,0
12936B_GOLDEN_0,1
12936B_PEACH_0,2
12936B_PINK_0,0
12936B_PURPLE_0,4
12938B_BLACK_0,0
12938B_BLUE_0,0
12938B_BROWN_0,0
12938B_GOLDEN_0,1
12938B_GRAY_0,1
12938B_MAHROON_0,2
12938B_PURPLE_0,1
12950B_BLACK_0,0
12950B_BLUE_0,0
12950B_GOLDEN_0,1
12950B_PURPLE_0,0
12950B_RED_0,0
12951B_BLACK_0,0
12951B_BLUE_0,0
12951B_FEROZI_0,0
12951B_GOLDEN_0,0
12951B_PURPLE_0,0
12951B_RED_0,0
12953B_BLUE_0,0
12953B_FEROZI_0,0
12953B_GOLDEN_0,0
12953B_GREEN_0,0
12953B_PINK_0,0
12953B_PURPLE_0,0
12953B_RED_0,0
12960B_BLACK_0,0
12960B_BLUE_0,1
12960B_FOWN_0,2
12960B_MASTARD_0,0
12967B_BLACK_0,0
12967B_BLUE_0,2
12967B_RED_0,1
12977B_BROWN_0,0
12977B_FOWN_0,0
12977B_RED_0,0
12978B_BLACK_0,0
12978B_BLUE_0,2
12978B_BROWN_0,1
12978B_FOWN_0,0
12980B_GOLDEN_0,0
12980B_MULTI_0,0
12981B_BLACK_0,0
12992B_BLACK_0,0
12992B_FOWN_0,0
12992B_MASTARD_0,0
12992B_RED_0,0
13001B_BLACK_0,1
13001B_BLACK/WHITE_0,1
13001B_FEROZI_0,0
13001B_FOWN_0,1
13001B_PINK_0,1
13001B_WHITE_0,1
13028B_BLACK_0,1
13028B_FOWN_0,1
13028B_PINK_0,2
13028B_RED_0,2
13028B_WHITE_0,2
13046B_BROWN_0,0
13079B_BLACK_0,0
13079B_BLUE_0,1
13079B_GRAY_0,0
13081B_BLACK_0,1
13081B_BLUE_0,2
13081B_FOWN_0,0
13087B_BLACK_0,0
13087B_BROWN_0,0
13087B_WHITE_0,0
13130B_BLACK_0,0
13130B_BLUE_0,1
13130B_PURPLE_0,1
13130B_RED_0,2
13133B_GOLDEN_0,0
13133B_SILVER_0,1
13135B_BLACK_0,0
13135B_GRAY_0,1
13135B_PINK_0,1
34195S_WHITE_35,0
34195S_GOLDEN_36,0
34195S_GRAY_36,1
34195S_PEACH_36,1
34195S_SILVER_36,0
34195S_WHITE_36,0
34195S_GOLDEN_37,1
34195S_WHITE_37,0
34195S_GOLDEN_38,3
34195S_WHITE_38,0
34195S_GOLDEN_39,1
34195S_WHITE_39,0
34195S_WHITE_40,0
34195S_WHITE_41,0
34195S_WHITE_42,0
34198S_WHITE_36,0
34198S_WHITE_37,0
34198S_WHITE_38,0
34198S_WHITE_39,2
34198S_WHITE_40,1
34198S_WHITE_41,2
34198S_WHITE_42,1
34198S_WHITE_43,1
34569S_BLACK_35,0
34569S_FOWN_35,0
34569S_WHITE_35,0
34569S_BLACK_36,1
34569S_FOWN_36,0
34569S_PEACH_36,1
34569S_WHITE_36,0
34569S_BLACK_37,1
34569S_FOWN_37,1
34569S_PEACH_37,1
34569S_WHITE_37,0
34569S_BLACK_38,1
34569S_FOWN_38,1
34569S_PEACH_38,2
34569S_WHITE_38,0
34569S_BLACK_39,1
34569S_FOWN_39,0
34569S_PEACH_39,2
34569S_BLACK_40,2
34569S_FOWN_40,2
34569S_PEACH_40,3
34569S_WHITE_40,0
34569S_BLACK_41,2
34569S_FOWN_41,1
34569S_WHITE_41,0
34569S_BLACK_42,0
34569S_FOWN_42,1
34569S_PEACH_42,2
34569S_WHITE_42,0
34652S_BROWN_35,0
34652S_FOWN_35,0
34652S_BLACK_36,0
34652S_BROWN_36,0
34652S_FOWN_36,0
34652S_MAHROON_36,0
34652S_BLACK_37,0
34652S_BROWN_37,0
34652S_FOWN_37,0
34652S_MAHROON_37,0
34652S_BLACK_38,0
34652S_BROWN_38,0
34652S_FOWN_38,0
34652S_MAHROON_38,0
34652S_BLACK_39,0
34652S_BROWN_39,0
34652S_FOWN_39,0
34652S_MAHROON_39,0
34652S_BLACK_40,0
34652S_BROWN_40,0
34652S_FOWN_40,0
34652S_MAHROON_40,0
34652S_BLACK_41,0
34652S_BROWN_41,0
34652S_FOWN_41,0
34652S_MAHROON_41,0
34652S_BLACK_42,0
34652S_BROWN_42,0
34652S_FOWN_42,0
34652S_MAHROON_42,0
34652S_BLACK_43,0
34652S_BROWN_43,0
34652S_FOWN_43,0
34652S_MAHROON_43,0
34712S_BLACK_36,0
34712S_BROWN_36,0
34712S_GOLDEN_36,0
34712S_BLACK_37,0
34712S_BROWN_37,0
34712S_GOLDEN_37,0
34712S_SILVER_37,1
34712S_BLACK_38,0
34712S_BROWN_38,0
34712S_GOLDEN_38,0
34712S_SILVER_38,1
34712S_BLACK_39,0
34712S_BROWN_39,0
34712S_GOLDEN_39,2
34712S_SILVER_39,1
34712S_BLACK_40,4
34712S_BROWN_40,0
34712S_GOLDEN_40,0
34712S_SILVER_40,3
34712S_BLACK_41,1
34712S_BROWN_41,0
34712S_GOLDEN_41,0
34712S_SILVER_41,1
34712S_BLACK_42,2
34712S_BROWN_42,0
34712S_GOLDEN_42,2
34712S_SILVER_42,1
34712S_BLACK_43,0
34712S_BROWN_43,0
34712S_GOLDEN_43,0
34712S_SILVER_43,0
34723S_BLACK_36,1
34723S_BROWN_36,1
34723S_GOLDEN_36,0
34723S_PEACH_36,1
34723S_SILVER_36,0
34723S_WHITE_36,1
34723S_BROWN_37,1
34723S_GOLDEN_37,0
34723S_PEACH_37,1
34723S_SILVER_37,0
34723S_BLACK_38,1
34723S_BROWN_38,2
34723S_PEACH_38,0
34723S_SILVER_38,0
34723S_WHITE_38,1
34723S_BLACK_39,2
34723S_BROWN_39,2
34723S_GOLDEN_39,0
34723S_SILVER_39,0
34723S_WHITE_39,0
34723S_BLACK_40,1
34723S_BROWN_40,1
34723S_PEACH_40,0
34723S_SILVER_40,0
34723S_WHITE_40,2
34723S_BLACK_41,1
34723S_BROWN_41,0
34723S_GOLDEN_41,0
34723S_PEACH_41,1
34723S_SILVER_41,0
34723S_WHITE_41,1
34723S_BLACK_42,1
34723S_BROWN_42,1
34723S_GOLDEN_42,0
34723S_PEACH_42,0
34723S_SILVER_42,0
34723S_WHITE_42,0
34723S_BROWN_43,0
34723S_GOLDEN_43,0
34723S_PEACH_43,0
34723S_SILVER_43,0
34751S_BLACK_36,2
34751S_GOLDEN_36,0
34751S_GRAY_36,1
34751S_PEACH_36,0
34751S_SILVER_36,0
34751S_WHITE_36,0
34751S_BLACK_37,2
34751S_GOLDEN_37,1
34751S_GRAY_37,2
34751S_PEACH_37,0
34751S_SILVER_37,0
34751S_WHITE_37,0
34751S_BLACK_38,1
34751S_GOLDEN_38,0
34751S_GRAY_38,1
34751S_PEACH_38,0
34751S_SILVER_38,0
34751S_WHITE_38,0
34751S_BLACK_39,1
34751S_GOLDEN_39,2
34751S_GRAY_39,2
34751S_SILVER_39,0
34751S_WHITE_39,0
34751S_BLACK_40,0
34751S_GOLDEN_40,2
34751S_GRAY_40,2
34751S_PEACH_40,0
34751S_SILVER_40,0
34751S_WHITE_40,0
34751S_BLACK_41,0
34751S_GOLDEN_41,0
34751S_GRAY_41,0
34751S_PEACH_41,0
34751S_SILVER_41,0
34751S_WHITE_41,0
34751S_BLACK_42,0
34751S_GOLDEN_42,1
34751S_GRAY_42,0
34751S_PEACH_42,0
34751S_SILVER_42,0
34751S_WHITE_42,0
34751S_BLACK_43,0
34751S_GOLDEN_43,0
34751S_GRAY_43,0
34751S_PEACH_43,0
34751S_SILVER_43,0
34751S_WHITE_43,0
34765S_BROWN_36,0
34765S_D/MAHROON_36,0
34765S_GOLDEN_36,0
34765S_GRAY_36,0
34765S_GREEN_36,0
34765S_MAHROON_36,0
34765S_PEACH_36,1
34765S_SILVER_36,2
34765S_GOLDEN_37,0
34765S_MAHROON_37,0
34765S_GOLDEN_38,0
34765S_MAHROON_38,0
34765S_GOLDEN_39,0
34765S_MAHROON_39,0
34765S_GOLDEN_40,0
34765S_MAHROON_40,0
34765S_GOLDEN_41,0
34765S_GOLDEN_42,0
34765S_MAHROON_42,0
34766S_BLACK_36,0
34766S_BROWN_36,0
34766S_D/MAHROON_36,1
34766S_GOLDEN_36,1
34766S_GREEN_36,0
34766S_MAHROON_36,0
34766S_PEACH_36,0
34766S_SILVER_36,0
34766S_BLACK_37,0
34766S_BROWN_37,0
34766S_D/MAHROON_37,0
34766S_GOLDEN_37,0
34766S_GREEN_37,0
34766S_MAHROON_37,0
34766S_PEACH_37,0
34766S_SILVER_37,0
34766S_BLACK_38,0
34766S_BROWN_38,0
34766S_D/MAHROON_38,0
34766S_GOLDEN_38,0
34766S_GREEN_38,0
34766S_MAHROON_38,0
34766S_PEACH_38,0
34766S_SILVER_38,0
34766S_BLACK_39,0
34766S_BROWN_39,2
34766S_D/MAHROON_39,2
34766S_GOLDEN_39,1
34766S_GREEN_39,2
34766S_MAHROON_39,0
34766S_PEACH_39,0
34766S_SILVER_39,0
34766S_BLACK_40,0
34766S_BROWN_40,2
34766S_D/MAHROON_40,1
34766S_GOLDEN_40,2
34766S_GREEN_40,3
34766S_MAHROON_40,0
34766S_PEACH_40,0
34766S_SILVER_40,0
34766S_BLACK_41,0
34766S_BROWN_41,0
34766S_D/MAHROON_41,0
34766S_GOLDEN_41,0
34766S_GREEN_41,0
34766S_MAHROON_41,0
34766S_PEACH_41,0
34766S_SILVER_41,0
34766S_BLACK_42,0
34766S_BROWN_42,1
34766S_D/MAHROON_42,0
34766S_GOLDEN_42,0
34766S_GREEN_42,1
34766S_MAHROON_42,0
34766S_PEACH_42,0
34766S_SILVER_42,0
34766S_BLACK_43,0
34766S_BROWN_43,1
34766S_D/MAHROON_43,0
34766S_GOLDEN_43,0
34766S_GREEN_43,0
34766S_MAHROON_43,0
34766S_PEACH_43,0
34766S_SILVER_43,0
34767S_BLACK_36,0
34767S_BROWN_36,0
34767S_D/MAHROON_36,0
34767S_GOLDEN_36,0
34767S_GREEN_36,0
34767S_GREY_36,0
34767S_MAHROON_36,0
34767S_PEACH_36,1
34767S_SILVER_36,0
34767S_BLACK_37,0
34767S_BROWN_37,0
34767S_D/MAHROON_37,0
34767S_GOLDEN_37,0
34767S_GREEN_37,0
34767S_GREY_37,0
34767S_MAHROON_37,0
34767S_PEACH_37,0
34767S_SILVER_37,0
34767S_BLACK_38,0
34767S_BROWN_38,0
34767S_D/MAHROON_38,0
34767S_GOLDEN_38,1
34767S_GREEN_38,0
34767S_GREY_38,0
34767S_MAHROON_38,0
34767S_PEACH_38,0
34767S_SILVER_38,0
34767S_BLACK_39,0
34767S_BROWN_39,0
34767S_D/MAHROON_39,0
34767S_GOLDEN_39,1
34767S_GREEN_39,0
34767S_GREY_39,0
34767S_MAHROON_39,0
34767S_PEACH_39,3
34767S_SILVER_39,0
34767S_BLACK_40,0
34767S_BROWN_40,0
34767S_D/MAHROON_40,0
34767S_GOLDEN_40,1
34767S_GREEN_40,0
34767S_GREY_40,0
34767S_MAHROON_40,0
34767S_PEACH_40,1
34767S_SILVER_40,0
34767S_BLACK_41,0
34767S_BROWN_41,0
34767S_D/MAHROON_41,0
34767S_GOLDEN_41,0
34767S_GREEN_41,0
34767S_GREY_41,0
34767S_MAHROON_41,0
34767S_PEACH_41,0
34767S_SILVER_41,0
34767S_BLACK_42,0
34767S_BROWN_42,0
34767S_D/MAHROON_42,0
34767S_GOLDEN_42,0
34767S_GREEN_42,1
34767S_GREY_42,0
34767S_MAHROON_42,0
34767S_PEACH_42,0
34767S_SILVER_42,0
34767S_BLACK_43,0
34769S_BLACK_36,0
34769S_BROWN_36,1
34769S_FOWN_36,0
34769S_PEACH_36,1
34769S_SILVER_36,0
34769S_SILVER_38,0
34769S_SILVER_39,0
34774S_MAHROON_36,0
34774S_MAHROON_37,0
34774S_MAHROON_38,1
34774S_MAHROON_39,0
34774S_MAHROON_40,1
34774S_MAHROON_41,0
34774S_MAHROON_42,0
34774S_MAHROON_43,0
34788S_PEACH_36,0
34788S_PEACH_38,0
34788S_PEACH_39,0
34788S_PEACH_40,0
34788S_PEACH_41,0
34788S_PEACH_42,0
34788S_PEACH_43,0
34790S_WHITE_38,0
34790S_WHITE_39,0
34790S_WHITE_40,0
34790S_WHITE_41,0
34790S_WHITE_42,0
34790S_WHITE_43,0
34805S_GOLDEN_36,2
34805S_GREEN_36,3
34805S_GOLDEN_37,1
34805S_GREEN_37,1
34805S_GOLDEN_38,1
34805S_GOLDEN_39,2
34805S_GREEN_39,0
34805S_GOLDEN_40,1
34805S_GREEN_40,0
34805S_GOLDEN_41,1
34805S_GREEN_41,0
34805S_GOLDEN_42,0
34805S_GREEN_42,1
34805S_GOLDEN_43,1
34805S_GREEN_43,0
34879S_BLACK_36,1
34879S_BLACK_37,1
34879S_BLACK_38,1
34879S_BLACK_39,1
34879S_BLACK_40,2
34879S_BLACK_41,1
34879S_BLACK_42,0
34879S_BLACK_43,0
34895S_GOLDEN_36,2
34895S_GOLDEN_37,0
34895S_GOLDEN_38,1
34895S_GOLDEN_39,2
34895S_GOLDEN_40,0
34895S_GOLDEN_41,1
34895S_GOLDEN_42,0
34895S_GOLDEN_43,0
34901S_GRAY_36,1
34901S_GRAY_37,0
34901S_GRAY_38,0
34901S_GRAY_39,1
34901S_GRAY_40,2
34901S_GRAY_41,2
34901S_GRAY_42,1
34901S_GRAY_43,1
34904S_BROWN_36,0
34904S_BROWN_37,0
34904S_FOWN_37,0
34904S_BROWN_38,0
34904S_BROWN_39,0
34904S_FOWN_39,0
34904S_BROWN_40,0
34904S_FOWN_40,0
34904S_BROWN_41,0
34904S_FOWN_41,0
34904S_BROWN_42,0
34904S_FOWN_42,0
34904S_BROWN_43,0
34904S_FOWN_43,0
34925S_BLACK_36,0
34925S_FOWN_36,1
34925S_BLACK_37,0
34925S_FOWN_37,0
34925S_BLACK_38,0
34925S_FOWN_38,0
34925S_BLACK_39,0
34925S_FOWN_39,0
34925S_BLACK_40,0
34925S_FOWN_40,0
34925S_BLACK_41,0
34925S_FOWN_41,1
34925S_BLACK_42,0
34925S_FOWN_42,1
34925S_BLACK_43,0
34925S_FOWN_43,0
34938S_BROWN_36,0
34938S_GOLDEN_36,0
34938S_SILVER_36,1
34938S_BROWN_37,0
34938S_GOLDEN_37,0
34938S_SILVER_37,0
34938S_BROWN_38,0
34938S_GOLDEN_38,0
34938S_SILVER_38,2
34938S_BROWN_39,0
34938S_GOLDEN_39,0
34938S_SILVER_39,0
34938S_BROWN_40,0
34938S_GOLDEN_40,0
34938S_SILVER_40,0
34938S_BROWN_41,0
34938S_GOLDEN_41,0
34938S_SILVER_41,0
34938S_BROWN_42,0
34938S_GOLDEN_42,0
34938S_SILVER_42,0
34938S_BROWN_43,0
34938S_GOLDEN_43,0
34938S_SILVER_43,1
34943S_BROWN_36,0
34943S_FOWN_36,0
34943S_WHITE_36,0
34943S_BROWN_37,0
34943S_FOWN_37,0
34943S_WHITE_37,0
34943S_BROWN_38,0
34943S_FOWN_38,0
34943S_WHITE_38,0
34943S_BROWN_39,0
34943S_FOWN_39,0
34943S_WHITE_39,0
34943S_BROWN_40,0
34943S_FOWN_40,0
34943S_WHITE_40,0
34943S_BROWN_41,0
34943S_FOWN_41,0
34943S_WHITE_41,0
34943S_BROWN_42,0
34943S_FOWN_42,0
34943S_WHITE_42,0
34943S_BROWN_43,0
34943S_FOWN_43,0
34943S_WHITE_43,0
34955S_GOLDEN_36,0
34955S_GRAY_36,0
34955S_PEACH_36,0
34955S_GOLDEN_37,0
34955S_GRAY_37,0
34955S_PEACH_37,0
34955S_GOLDEN_38,0
34955S_GRAY_38,0
34955S_PEACH_38,0
34955S_GOLDEN_39,0
34955S_GRAY_39,0
34955S_PEACH_39,0
34955S_GOLDEN_40,0
34955S_GRAY_40,0
34955S_PEACH_40,0
34955S_GOLDEN_41,0
34955S_GRAY_41,0
34955S_PEACH_41,0
34955S_GOLDEN_42,0
34955S_GRAY_42,0
34955S_PEACH_42,0
34955S_GOLDEN_43,0
34955S_GRAY_43,0
34955S_PEACH_43,0
34956S_BROWN_36,0
34956S_GOLDEN_36,0
34956S_PEACH_36,0
34956S_SILVER_36,0
34956S_BROWN_37,0
34956S_GOLDEN_37,0
34956S_PEACH_37,0
34956S_SILVER_37,0
34956S_BROWN_38,0
34956S_GOLDEN_38,1
34956S_PEACH_38,0
34956S_SILVER_38,0
34956S_BROWN_39,1
34956S_GOLDEN_39,2
34956S_PEACH_39,0
34956S_SILVER_39,0
34956S_BROWN_40,2
34956S_GOLDEN_40,2
34956S_PEACH_40,0
34956S_SILVER_40,0
34956S_BROWN_41,0
34956S_GOLDEN_41,1
34956S_PEACH_41,0
34956S_SILVER_41,0
34956S_BROWN_42,0
34956S_GOLDEN_42,1
34956S_PEACH_42,0
34956S_SILVER_42,0
34956S_BROWN_43,0
34956S_GOLDEN_43,0
34956S_PEACH_43,0
34956S_SILVER_43,0
34966S_BROWN_36,1
34966S_GOLDEN_36,0
34966S_GRAY_36,0
34966S_PEACH_36,0
34966S_BROWN_37,1
34966S_GOLDEN_37,0
34966S_GRAY_37,0
34966S_PEACH_37,1
34966S_BROWN_38,1
34966S_GOLDEN_38,0
34966S_GRAY_38,0
34966S_PEACH_38,0
34966S_BROWN_39,1
34966S_GOLDEN_39,0
34966S_GRAY_39,0
34966S_PEACH_39,2
34966S_BROWN_40,1
34966S_GOLDEN_40,0
34966S_GRAY_40,0
34966S_PEACH_40,1
34966S_BROWN_41,0
34966S_GOLDEN_41,0
34966S_GRAY_41,0
34966S_PEACH_41,2
34966S_BROWN_42,0
34966S_GOLDEN_42,0
34966S_GRAY_42,0
34966S_PEACH_42,0
34966S_BROWN_43,0
34966S_GOLDEN_43,0
34966S_GRAY_43,0
34966S_PEACH_43,0
34968S_BROWN_36,1
34968S_GOLDEN_36,1
34968S_GRAY_36,2
34968S_PEACH_36,0
34968S_BROWN_37,0
34968S_GOLDEN_37,2
34968S_GRAY_37,2
34968S_PEACH_37,0
34968S_BROWN_38,0
34968S_GOLDEN_38,1
34968S_GRAY_38,0
34968S_PEACH_38,0
34968S_BROWN_39,1
34968S_GOLDEN_39,1
34968S_GRAY_39,1
34968S_PEACH_39,0
34968S_BROWN_40,1
34968S_GOLDEN_40,0
34968S_GRAY_40,1
34968S_PEACH_40,0
34968S_BROWN_41,2
34968S_GOLDEN_41,0
34968S_GRAY_41,1
34968S_PEACH_41,0
34968S_BROWN_42,1
34968S_GOLDEN_42,0
34968S_GRAY_42,1
34968S_PEACH_42,0
34968S_BROWN_43,0
34968S_GOLDEN_43,0
34968S_GRAY_43,1
34968S_PEACH_43,0
34972S_BLACK_36,0
34972S_BROWN_36,1
34972S_GOLDEN_36,0
34972S_GRAY_36,1
34972S_PEACH_36,0
34972S_BLACK_37,0
34972S_BROWN_37,1
34972S_GOLDEN_37,0
34972S_GRAY_37,0
34972S_PEACH_37,0
34972S_BLACK_38,0
34972S_BROWN_38,0
34972S_GOLDEN_38,0
34972S_GRAY_38,2
34972S_PEACH_38,0
34972S_BLACK_39,0
34972S_BROWN_39,3
34972S_GOLDEN_39,3
34972S_GRAY_39,2
34972S_PEACH_39,1
34972S_BLACK_40,0
34972S_BROWN_40,2
34972S_GOLDEN_40,2
34972S_GRAY_40,2
34972S_PEACH_40,2
34972S_BLACK_41,0
34972S_BROWN_41,1
34972S_GOLDEN_41,0
34972S_GRAY_41,1
34972S_PEACH_41,2
34972S_BLACK_42,0
34972S_BROWN_42,1
34972S_GOLDEN_42,0
34972S_GRAY_42,1
34972S_PEACH_42,1
34972S_BLACK_43,0
34972S_BROWN_43,0
34972S_GOLDEN_43,0
34972S_GRAY_43,0
34972S_PEACH_43,0
34979S_BROWN_36,0
34979S_GOLDEN_36,1
34979S_PEACH_36,0
34979S_BROWN_37,0
34979S_GOLDEN_37,0
34979S_PEACH_37,0
34979S_BROWN_38,0
34979S_GOLDEN_38,0
34979S_PEACH_38,0
34979S_BROWN_39,0
34979S_GOLDEN_39,2
34979S_PEACH_39,0
34979S_BROWN_40,0
34979S_GOLDEN_40,1
34979S_PEACH_40,0
34979S_BROWN_41,0
34979S_GOLDEN_41,1
34979S_PEACH_41,0
34979S_BROWN_42,0
34979S_GOLDEN_42,0
34979S_PEACH_42,0
34979S_BROWN_43,0
34979S_GOLDEN_43,0
34979S_PEACH_43,0
34980S_BLACK_36,0
34980S_BROWN_36,0
34980S_GOLDEN_36,1
34980S_GRAY_36,0
34980S_PEACH_36,0
34980S_BLACK_37,0
34980S_BROWN_37,0
34980S_GOLDEN_37,0
34980S_GRAY_37,0
34980S_PEACH_37,0
34980S_BLACK_38,0
34980S_BROWN_38,0
34980S_GOLDEN_38,0
34980S_GRAY_38,0
34980S_PEACH_38,0
34980S_BLACK_39,0
34980S_BROWN_39,0
34980S_GOLDEN_39,2
34980S_GRAY_39,0
34980S_PEACH_39,0
34980S_BLACK_40,0
34980S_BROWN_40,1
34980S_GOLDEN_40,2
34980S_GRAY_40,0
34980S_PEACH_40,0
34980S_BLACK_41,0
34980S_BROWN_41,2
34980S_GOLDEN_41,2
34980S_GRAY_41,0
34980S_PEACH_41,0
34980S_BLACK_42,0
34980S_BROWN_42,2
34980S_GOLDEN_42,1
34980S_GRAY_42,0
34980S_PEACH_42,0
34980S_BLACK_43,0
34980S_BROWN_43,0
34980S_GOLDEN_43,0
34980S_GRAY_43,0
34980S_PEACH_43,0
35038S_GRAY_36,1
35038S_GRAY_37,1
35038S_GRAY_38,1
35038S_GRAY_39,1
35038S_GRAY_40,2
35038S_GRAY_41,0
35038S_GRAY_42,0
35038S_GRAY_43,0
35046S_BROWN_36,1
35046S_BROWN_37,1
35046S_BROWN_38,1
35046S_BROWN_39,1
35046S_BROWN_40,1
35046S_BROWN_41,0
35046S_BROWN_42,0
35046S_BROWN_43,0
35048S_BLACK_36,2
35048S_BROWN_36,0
35048S_BLACK_37,1
35048S_BROWN_37,0
35048S_BLACK_38,2
35048S_BROWN_38,0
35048S_BLACK_39,0
35048S_BROWN_39,0
35048S_BLACK_40,0
35048S_BROWN_40,0
35048S_BLACK_41,0
35048S_BROWN_41,0
35048S_BLACK_42,1
35048S_BROWN_42,0
35048S_BLACK_43,0
35048S_BROWN_43,0
35138S_BROWN_36,0
35138S_GOLDEN_36,0
35138S_PEACH_36,0
35138S_GOLDEN_37,0
35138S_GOLDEN_38,1
35138S_GOLDEN_39,2
35138S_GOLDEN_40,2
35138S_GOLDEN_41,0
35138S_GOLDEN_42,2
35138S_GOLDEN_43,0
35225S_PEACH_36,2
35225S_PEACH_37,2
35225S_PEACH_38,2
35225S_PEACH_39,2
35225S_PEACH_40,3
35225S_PEACH_41,0
35225S_PEACH_42,0
35225S_PEACH_43,0
35350S_PEACH_36,0
35350S_PEACH_37,1
35350S_PEACH_38,1
35350S_PEACH_39,2
35350S_PEACH_40,1
35350S_PEACH_41,1
35350S_PEACH_42,1
35350S_PEACH_43,0
35368S_GRAY_36,2
35368S_GRAY_37,2
35368S_GRAY_38,2
35368S_GRAY_39,1
35368S_GRAY_40,2
35368S_GRAY_41,2
35368S_GRAY_42,0
35368S_GRAY_43,0
35373S_BROWN_36,0
35373S_FOWN_36,1
35373S_BROWN_37,0
35373S_BROWN_38,1
35373S_BROWN_39,1
35373S_BROWN_40,0
35373S_BROWN_41,1
35373S_BROWN_42,0
35373S_BROWN_43,0
35399S_GOLDEN_36,1
35399S_GRAY_36,1
35399S_GOLDEN_37,0
35399S_GRAY_37,1
35399S_GOLDEN_38,0
35399S_GRAY_38,2
35399S_GOLDEN_39,1
35399S_GRAY_39,2
35399S_GOLDEN_40,0
35399S_GRAY_40,1
35399S_GOLDEN_41,0
35399S_GRAY_41,1
35399S_GOLDEN_42,1
35399S_GRAY_42,0
35399S_GOLDEN_43,0
35399S_GRAY_43,1
35406S_FOWN_36,0
35406S_WHITE_36,0
35406S_FOWN_37,0
35406S_WHITE_37,0
35406S_FOWN_38,0
35406S_WHITE_38,0
35406S_FOWN_39,0
35406S_WHITE_39,0
35406S_FOWN_40,0
35406S_WHITE_40,0
35406S_FOWN_41,0
35406S_WHITE_41,0
35406S_FOWN_42,0
35406S_WHITE_42,0
35406S_FOWN_43,0
35406S_WHITE_43,0
35425S_FOWN_36,0
35425S_WHITE_36,1
35425S_FOWN_37,0
35425S_WHITE_37,1
35425S_FOWN_38,2
35425S_WHITE_38,2
35425S_FOWN_39,1
35425S_WHITE_39,1
35425S_FOWN_40,1
35425S_WHITE_40,1
35425S_FOWN_41,0
35425S_WHITE_41,0
35425S_FOWN_42,0
35425S_WHITE_42,0
35425S_FOWN_43,0
35425S_WHITE_43,0
35448S_BLACK_36,1
35448S_BLACK_37,0
35448S_BLACK_38,1
35448S_BLACK_39,2
35448S_BLACK_40,0
35448S_BLACK_41,1
35448S_BLACK_42,1
35448S_BLACK_43,0
35492S_BROWN_36,2
35492S_BROWN_37,2
35492S_BROWN_38,2
35492S_BROWN_39,2
35492S_BROWN_40,2
35492S_BROWN_41,2
35492S_BROWN_42,2
35492S_BROWN_43,0
60926S_GOLDEN_36,1
60926S_GRAY_36,0
60926S_PEACH_36,1
60926S_GOLDEN_37,2
60926S_GRAY_37,0
60926S_PEACH_37,0
60926S_GOLDEN_38,2
60926S_GRAY_38,0
60926S_PEACH_38,0
60926S_GOLDEN_39,3
60926S_GRAY_39,0
60926S_PEACH_39,3
60926S_GOLDEN_40,2
60926S_GRAY_40,0
60926S_PEACH_40,1
60926S_GOLDEN_41,1
60926S_GRAY_41,0
60926S_PEACH_41,1
60926S_GOLDEN_42,0
60926S_GRAY_42,0
60926S_PEACH_42,0
60966S_GOLDEN_36,1
60966S_PEACH_36,0
60966S_GOLDEN_37,4
60966S_PEACH_37,3
60966S_GOLDEN_38,3
60966S_PEACH_38,4
60966S_GOLDEN_39,3
60966S_PEACH_39,1
60966S_GOLDEN_40,1
60966S_PEACH_40,2
60966S_GOLDEN_41,1
60966S_PEACH_41,2
60966S_GOLDEN_42,0
60966S_PEACH_42,0
61016S_PEACH_36,1
61016S_PEACH_37,1
61016S_PEACH_38,2
61016S_PEACH_39,2
61016S_PEACH_40,1
61016S_PEACH_41,1
61016S_PEACH_42,0
72106S_BLACK_36,0
72106S_BROWN_36,0
72106S_GOLDEN_36,0
72106S_PEACH_36,0
72106S_BLACK_37,0
72106S_BROWN_37,0
72106S_GOLDEN_37,0
72106S_PEACH_37,0
72106S_BLACK_38,0
72106S_BROWN_38,0
72106S_GOLDEN_38,0
72106S_PEACH_38,0
72106S_BLACK_39,0
72106S_BROWN_39,0
72106S_GOLDEN_39,0
72106S_PEACH_39,0
72106S_BLACK_40,0
72106S_BROWN_40,0
72106S_GOLDEN_40,0
72106S_PEACH_40,0
72106S_BLACK_41,0
72106S_BROWN_41,0
72106S_GOLDEN_41,0
72106S_PEACH_41,0
72106S_BLACK_42,0
72106S_BROWN_42,0
72106S_GOLDEN_42,0
72106S_PEACH_42,0
72106S_BLACK_43,0
72106S_BROWN_43,0
72106S_GOLDEN_43,0
72106S_PEACH_43,0
72127S_BROWN_36,0
72127S_GOLDEN_36,0
72127S_PEACH_36,0
72127S_BROWN_37,0
72127S_GOLDEN_37,0
72127S_BROWN_38,0
72127S_GOLDEN_38,0
72127S_BROWN_39,0
72127S_GOLDEN_39,0
72127S_BROWN_40,0
72127S_GOLDEN_40,0
72127S_BROWN_41,0
72127S_GOLDEN_41,0
72198S_BLACK_36,0
72198S_GOLDEN_36,0
72198S_PEACH_36,0
72198S_BLACK_37,0
72198S_GOLDEN_37,0
72198S_PEACH_37,0
72198S_BLACK_38,0
72198S_GOLDEN_38,0
72198S_PEACH_38,0
72198S_BLACK_39,0
72198S_GOLDEN_39,0
72198S_PEACH_39,0
72198S_BLACK_40,0
72198S_GOLDEN_40,0
72198S_PEACH_40,0
72198S_BLACK_41,0
72198S_GOLDEN_41,0
72198S_PEACH_41,0
72198S_BLACK_42,0
72198S_GOLDEN_42,0
72198S_PEACH_42,0
72198S_BLACK_43,0
72198S_GOLDEN_43,0
72198S_PEACH_43,0
72293S_RED_36,1
72293S_RED_37,1
72293S_RED_38,2
72293S_RED_39,1
72293S_RED_40,1
72293S_RED_41,1
72293S_RED_42,0
72293S_RED_43,0
72305S_FOWN_36,1
72305S_FOWN_37,1
72305S_FOWN_38,2
72305S_FOWN_39,2
72305S_FOWN_40,1
72305S_FOWN_41,1
72305S_FOWN_42,0
72305S_FOWN_43,0
72323S_FOWN_36,3
72323S_GRAY_36,2
72323S_FOWN_37,4
72323S_GRAY_37,4
72323S_FOWN_38,2
72323S_GRAY_38,4
72323S_FOWN_39,2
72323S_GRAY_39,3
72323S_FOWN_40,4
72323S_GRAY_40,2
72323S_FOWN_41,2
72323S_GRAY_41,1
72323S_FOWN_42,0
72323S_GRAY_42,0
72323S_FOWN_43,0
72323S_GRAY_43,0
72373S_FOWN_36,0
72373S_FOWN_37,1
72373S_FOWN_38,2
72373S_FOWN_39,2
72373S_FOWN_40,1
72373S_FOWN_41,1
72373S_FOWN_42,0
93840S_BEIGE_35,0
93840S_BLACK_35,0
93840S_BROWN_35,0
93840S_BEIGE_36,0
93840S_BLACK_36,0
93840S_BROWN_36,0
93840S_BEIGE_37,0
93840S_BLACK_37,0
93840S_BROWN_37,0
93840S_BEIGE_38,0
93840S_BLACK_38,0
93840S_BROWN_38,0
93840S_BEIGE_39,0
93840S_BLACK_39,0
93840S_BROWN_39,0
93840S_BEIGE_40,0
93840S_BLACK_40,0
93840S_BROWN_40,0
93840S_BEIGE_41,0
93840S_BLACK_41,0
93840S_BROWN_41,0
93840S_BEIGE_42,0
93840S_BLACK_42,0
93840S_BROWN_42,0
93840S_BEIGE_43,0
93840S_BLACK_43,0
93840S_BROWN_43,0
93869S_BEIGE_35,0
93869S_PINK_35,0
93869S_BEIGE_36,0
93869S_BLACK_36,0
93869S_PINK_36,0
93869S_WHITE_36,0
93869S_BEIGE_37,0
93869S_BLACK_37,0
93869S_PINK_37,1
93869S_WHITE_37,0
93869S_BEIGE_38,0
93869S_BLACK_38,0
93869S_PINK_38,0
93869S_WHITE_38,0
93869S_BEIGE_39,0
93869S_BLACK_39,0
93869S_PINK_39,0
93869S_WHITE_39,0
93869S_BEIGE_40,0
93869S_BLACK_40,0
93869S_PINK_40,0
93869S_WHITE_40,0
93869S_BEIGE_41,0
93869S_BLACK_41,0
93869S_PINK_41,0
93869S_WHITE_41,0
93869S_BEIGE_42,0
93869S_PINK_42,0
93869S_BEIGE_43,0
93869S_PINK_43,0
93988S_GOLDEN_35,0
93988S_PEACH_35,0
93988S_GOLDEN_36,2
93988S_PEACH_36,0
93988S_GOLDEN_37,2
93988S_PEACH_37,0
93988S_GOLDEN_38,1
93988S_PEACH_38,0
93988S_GOLDEN_39,0
93988S_PEACH_39,0
93988S_GOLDEN_40,0
93988S_PEACH_40,0
93988S_GOLDEN_41,0
93988S_PEACH_41,0
93988S_GOLDEN_42,0
93988S_PEACH_42,0
93988S_GOLDEN_43,0
93988S_PEACH_43,0
94004S_BLACK_35,0
94004S_CAMEL_35,0
94004S_BEIGE_36,2
94004S_BLACK_36,0
94004S_CAMEL_36,0
94004S_BEIGE_37,3
94004S_BLACK_37,0
94004S_CAMEL_37,0
94004S_BEIGE_38,5
94004S_BLACK_38,0
94004S_CAMEL_38,0
94004S_BEIGE_39,3
94004S_BLACK_39,0
94004S_CAMEL_39,0
94004S_BEIGE_40,0
94004S_BLACK_40,0
94004S_CAMEL_40,0
94004S_BEIGE_41,0
94004S_BLACK_41,0
94004S_CAMEL_41,0
94004S_BLACK_42,0
94004S_CAMEL_42,0
94004S_BLACK_43,0
94004S_CAMEL_43,0
94107S_BROWN_36,1
94107S_GOLDEN_36,0
94107S_L/GOLDEN_36,1
94107S_SILVER_36,0
94107S_BROWN_37,4
94107S_GOLDEN_37,0
94107S_L/GOLDEN_37,0
94107S_SILVER_37,0
94107S_BROWN_38,1
94107S_GOLDEN_38,0
94107S_L/GOLDEN_38,1
94107S_SILVER_38,0
94107S_BROWN_39,3
94107S_GOLDEN_39,0
94107S_L/GOLDEN_39,0
94107S_SILVER_39,0
94107S_BROWN_40,4
94107S_GOLDEN_40,0
94107S_L/GOLDEN_40,0
94107S_SILVER_40,0
94107S_BROWN_41,0
94107S_GOLDEN_41,0
94107S_L/GOLDEN_41,0
94107S_SILVER_41,0
94108S_BLACK_36,0
94108S_BROWN_36,0
94108S_GOLDEN_36,0
94108S_BLACK_37,0
94108S_BROWN_37,0
94108S_GOLDEN_37,0
94108S_BLACK_38,0
94108S_BROWN_38,0
94108S_GOLDEN_38,0
94108S_BLACK_39,0
94108S_BROWN_39,0
94108S_GOLDEN_39,0
94108S_BLACK_40,0
94108S_BROWN_40,0
94108S_GOLDEN_40,0
94108S_BLACK_41,0
94108S_BROWN_41,0
94108S_GOLDEN_41,0
94117S_BLACK_36,0
94117S_CHAMPAGNE_36,0
94117S_GOLDEN_36,0
94117S_BLACK_37,0
94117S_CHAMPAGNE_37,1
94117S_GOLDEN_37,0
94117S_BLACK_38,0
94117S_CHAMPAGNE_38,0
94117S_GOLDEN_38,0
94117S_BLACK_39,0
94117S_CHAMPAGNE_39,1
94117S_GOLDEN_39,0
94117S_BLACK_40,0
94117S_CHAMPAGNE_40,0
94117S_GOLDEN_40,1
94117S_BLACK_41,0
94117S_CHAMPAGNE_41,0
94117S_GOLDEN_41,0
94155S_BEIGE_36,0
94155S_BLACK_36,1
94158S_BLACK_36,1
94158S_COFFEE_36,1
94158S_BLACK_37,3
94158S_COFFEE_37,2
94158S_BLACK_38,1
94158S_COFFEE_38,2
94158S_BLACK_39,1
94158S_COFFEE_39,1
94158S_BLACK_40,1
94158S_COFFEE_40,0
94158S_BLACK_41,0
94158S_COFFEE_41,0
94285S_BEIGE_36,0
94285S_BEIGE_37,0
94285S_BEIGE_38,0
94285S_BEIGE_39,0
94285S_BEIGE_40,0
94285S_BEIGE_41,0
94286S_MAHROON_36,0
94286S_MAHROON_37,1
94286S_MAHROON_38,1
94286S_MAHROON_39,2
94286S_MAHROON_40,1
94286S_MAHROON_41,1
94617S_COFFEE_36,0
94617S_FOWN_36,0
94617S_COFFEE_37,0
94617S_FOWN_37,0
94617S_COFFEE_38,0
94617S_FOWN_38,0
94617S_COFFEE_39,0
94617S_FOWN_39,0
94617S_COFFEE_40,0
94617S_FOWN_40,0
94617S_COFFEE_41,0
94617S_FOWN_41,0
94618S_COFFEE_36,3
94618S_FOWN_36,0
94618S_COFFEE_37,1
94618S_FOWN_37,0
94618S_COFFEE_38,0
94618S_FOWN_38,2
94618S_COFFEE_39,5
94618S_FOWN_39,6
94618S_COFFEE_40,1
94618S_FOWN_40,1
94618S_COFFEE_41,0
94618S_FOWN_41,0
94619S_COFFEE_36,0
94619S_COFFEE_37,0
94619S_COFFEE_38,0
94619S_COFFEE_39,0
94619S_COFFEE_40,0
94619S_COFFEE_41,0
94620S_FOWN_36,1
94620S_FOWN_37,0
94620S_FOWN_38,0
94620S_FOWN_39,2
94620S_FOWN_40,0
94620S_FOWN_41,0
94621S_COFFEE_36,0
94621S_FOWN_36,0
94621S_COFFEE_37,0
94621S_FOWN_37,0
94621S_COFFEE_38,0
94621S_FOWN_38,0
94621S_COFFEE_39,0
94621S_FOWN_39,0
94621S_COFFEE_40,0
94621S_FOWN_40,0
94621S_COFFEE_41,0
94621S_FOWN_41,0
94623S_BEIGE_36,1
94623S_GRAY_36,0
94623S_BEIGE_37,2
94623S_GRAY_37,0
94623S_BEIGE_38,1
94623S_GRAY_38,0
94623S_BEIGE_39,0
94623S_GRAY_39,0
94623S_BEIGE_40,4
94623S_GRAY_40,1
94623S_BEIGE_41,0
94623S_GRAY_41,0
94626S_COFFEE_36,0
94626S_KHAKI_36,1
94626S_COFFEE_37,3
94626S_KHAKI_37,0
94626S_COFFEE_38,1
94626S_KHAKI_38,1
94626S_COFFEE_39,3
94626S_KHAKI_39,2
94626S_COFFEE_40,0
94626S_KHAKI_40,0
94626S_COFFEE_41,1
94626S_KHAKI_41,0
94629S_CAMEL_36,0
94629S_KHAKI_36,1
94629S_CAMEL_37,0
94629S_KHAKI_37,0
94629S_CAMEL_38,0
94629S_KHAKI_38,1
94629S_CAMEL_39,0
94629S_KHAKI_39,2
94629S_CAMEL_40,0
94629S_KHAKI_40,1
94629S_CAMEL_41,0
94629S_KHAKI_41,0
94650S_BRONZE_36,3
94650S_L/GOLDEN_36,2
94650S_BRONZE_37,1
94650S_L/GOLDEN_37,3
94650S_BRONZE_38,3
94650S_L/GOLDEN_38,1
94650S_BRONZE_39,0
94650S_L/GOLDEN_39,1
94650S_BRONZE_40,0
94650S_L/GOLDEN_40,0
94650S_BRONZE_41,0
94650S_L/GOLDEN_41,0
94651S_L/GOLDEN_36,1
94651S_L/GOLDEN_37,1
94651S_L/GOLDEN_38,3
94651S_L/GOLDEN_39,3
94651S_L/GOLDEN_40,1
94651S_L/GOLDEN_41,0
94652S_BLACK_36,0
94652S_NAVY_36,0
94652S_NAVY_37,0
94652S_NAVY_38,2
94652S_NAVY_39,1
94652S_NAVY_40,0
94652S_NAVY_41,0
94653S_MAHROON_36,0
94653S_MAHROON_37,0
94653S_MAHROON_38,0
94653S_MAHROON_39,0
94653S_MAHROON_40,0
94653S_MAHROON_41,0
94654S_CHAMPAGNE_36,2
94654S_SILVER_36,2
94654S_CHAMPAGNE_37,2
94654S_SILVER_37,4
94654S_CHAMPAGNE_38,1
94654S_SILVER_38,3
94654S_CHAMPAGNE_39,2
94654S_SILVER_39,0
94654S_SILVER_40,0
94654S_CHAMPAGNE_41,0
94656S_BRONZE_36,0
94656S_BRONZE_37,0
94656S_BRONZE_38,0
94656S_BRONZE_39,0
94656S_BRONZE_40,0
94656S_BRONZE_41,0
94657S_L/GOLDEN_36,0
94657S_CHAMPAGNE_37,0
94657S_L/GOLDEN_39,0
94657S_L/GOLDEN_40,0
94657S_L/GOLDEN_41,0
94658S_KHAKI_36,1
94658S_L/GOLDEN_36,0
94658S_KHAKI_37,0
94658S_L/GOLDEN_37,0
94658S_KHAKI_38,0
94658S_L/GOLDEN_38,0
94658S_KHAKI_39,1
94658S_L/GOLDEN_39,1
94658S_KHAKI_40,0
94658S_L/GOLDEN_40,2
94658S_KHAKI_41,0
94658S_L/GOLDEN_41,0
94659S_CHAMPAGNE_36,0
94659S_CHAMPAGNE_37,1
94659S_CHAMPAGNE_38,1
94659S_CHAMPAGNE_39,1
94659S_CHAMPAGNE_40,1
94659S_CHAMPAGNE_41,0
94661S_BLACK_36,1
94661S_BLACK_37,1
94661S_BLACK_38,3
94661S_BLACK_39,1
94661S_BLACK_40,2
94661S_BLACK_41,0
94663S_BLACK_36,0
94663S_BLACK_37,0
94663S_BLACK_38,0
94663S_BLACK_39,0
94663S_BLACK_40,0
94663S_BLACK_41,0
94664S_CHAMPAGNE_36,0
94664S_PEWTER_36,0
94664S_CHAMPAGNE_37,0
94664S_PEWTER_37,0
94664S_CHAMPAGNE_38,0
94664S_PEWTER_38,0
94664S_CHAMPAGNE_39,0
94664S_PEWTER_39,0
94664S_CHAMPAGNE_40,0
94664S_PEWTER_40,0
94664S_CHAMPAGNE_41,0
94664S_PEWTER_41,0
94665S_BEIGE_36,0
94665S_BLACK_36,0
94665S_BEIGE_37,2
94665S_BLACK_37,2
94665S_BEIGE_38,6
94665S_BLACK_38,0
94665S_BEIGE_39,1
94665S_BLACK_39,0
94665S_BEIGE_40,5
94665S_BLACK_40,1
94665S_BEIGE_41,0
94665S_BLACK_41,0
94666S_BEIGE_36,0
94666S_BLACK_36,0
94666S_BEIGE_37,1
94666S_BLACK_37,1
94666S_BEIGE_38,3
94666S_BLACK_38,1
94666S_BEIGE_39,1
94666S_BLACK_39,0
94666S_BEIGE_40,0
94666S_BLACK_40,0
94666S_BEIGE_41,0
94666S_BLACK_41,0
94667S_BLACK_36,0
94667S_MASTARD_36,0
94667S_BLACK_37,2
94667S_MASTARD_37,4
94667S_BLACK_38,7
94667S_MASTARD_38,5
94667S_BLACK_39,2
94667S_MASTARD_39,2
94667S_BLACK_40,4
94667S_MASTARD_40,2
94667S_BLACK_41,0
94667S_MASTARD_41,0
94671S_BRONZE_36,0
94671S_PEWTER_36,0
94671S_BRONZE_37,1
94671S_PEWTER_37,1
94671S_BRONZE_38,1
94671S_PEWTER_38,3
94671S_BRONZE_39,1
94671S_PEWTER_39,1
94671S_BRONZE_40,4
94671S_PEWTER_40,1
94671S_BRONZE_41,0
94671S_PEWTER_41,0
94674S_BLACK_36,0
94674S_OFF/WHITE_36,0
94674S_BLACK_37,0
94674S_OFF/WHITE_37,0
94674S_BLACK_38,0
94674S_OFF/WHITE_38,0
94674S_BLACK_39,0
94674S_OFF/WHITE_39,0
94674S_BLACK_40,0
94674S_OFF/WHITE_40,0
94674S_BLACK_41,0
94674S_OFF/WHITE_41,0
94677S_BRONZE_36,0
94677S_CHAMPAGNE_36,1
94677S_L/GOLDEN_36,1
94677S_BRONZE_37,0
94677S_CHAMPAGNE_37,3
94677S_L/GOLDEN_37,1
94677S_BRONZE_38,0
94677S_CHAMPAGNE_38,2
94677S_L/GOLDEN_38,3
94677S_BRONZE_39,0
94677S_CHAMPAGNE_39,2
94677S_L/GOLDEN_39,3
94677S_BRONZE_40,0
94677S_CHAMPAGNE_40,3
94677S_L/GOLDEN_40,4
94677S_BRONZE_41,0
94677S_CHAMPAGNE_41,0
94677S_L/GOLDEN_41,0
94680S_BEIGE_36,1
94680S_RED_36,2
94680S_BEIGE_37,1
94680S_RED_37,3
94680S_BEIGE_38,2
94680S_RED_38,4
94680S_BEIGE_39,1
94680S_RED_39,3
94680S_BEIGE_40,1
94680S_RED_40,1
94680S_BEIGE_41,0
94680S_RED_41,0
94682S_BEIGE_37,0
94682S_GRAY_37,0
94682S_BEIGE_38,2
94682S_GRAY_38,0
94682S_BEIGE_39,0
94682S_BEIGE_40,2
94682S_GRAY_40,0
94682S_BEIGE_41,0
94686S_L/BROWN_36,0
94686S_NAVY_36,0
94686S_L/BROWN_37,0
94686S_NAVY_37,0
94686S_L/BROWN_38,1
94686S_NAVY_38,0
94686S_L/BROWN_39,0
94686S_NAVY_39,0
94686S_L/BROWN_40,0
94686S_NAVY_40,0
94686S_L/BROWN_41,0
94686S_NAVY_41,0
94687S_GRAY_36,2
94687S_L/GOLDEN_36,0
94687S_GRAY_37,0
94687S_L/GOLDEN_37,1
94687S_GRAY_38,1
94687S_L/GOLDEN_38,4
94687S_GRAY_39,2
94687S_L/GOLDEN_39,3
94687S_GRAY_40,2
94687S_L/GOLDEN_40,1
94687S_GRAY_41,0
94687S_L/GOLDEN_41,0
94688S_BEIGE_36,1
94688S_BROWN_36,1
94688S_BEIGE_37,1
94688S_BROWN_37,1
94688S_BEIGE_38,3
94688S_BROWN_38,2
94688S_BEIGE_39,2
94688S_BROWN_39,0
94688S_BEIGE_40,1
94688S_BROWN_40,0
94688S_BEIGE_41,0
94688S_BROWN_41,0
94703S_GOLDEN_36,0
94703S_PEWTER_36,1
94703S_GOLDEN_37,2
94703S_PEWTER_37,0
94703S_GOLDEN_38,0
94703S_PEWTER_38,2
94703S_PEWTER_39,2
94703S_GOLDEN_40,0
94703S_GOLDEN_41,0
94703S_PEWTER_41,0
94712S_BEIGE_36,0
94712S_NAVY_36,0
94712S_BEIGE_37,2
94712S_NAVY_37,1
94712S_BEIGE_38,0
94712S_NAVY_38,0
94712S_BEIGE_40,1
94712S_NAVY_40,0
94712S_BEIGE_41,0
94712S_NAVY_41,0
94712S_BEIGE_42,0
94712S_NAVY_42,0
94712S_BEIGE_43,0
94712S_NAVY_43,0
94715S_BROWN_36,1
94715S_BLACK_37,2
94715S_BROWN_37,1
94715S_BLACK_38,2
94715S_BROWN_38,1
94715S_BLACK_39,2
94715S_BROWN_39,2
94715S_BROWN_40,2
94715S_BROWN_41,1
94715S_BROWN_42,0
94715S_BROWN_43,0
94722S_GOLDEN_36,1
94722S_GOLDEN_37,1
94722S_GOLDEN_38,1
94722S_GOLDEN_39,2
94722S_BLACK_40,2
94722S_GOLDEN_40,1
94722S_GOLDEN_41,0
94722S_GOLDEN_42,0
94722S_GOLDEN_43,0
94724S_GOLDEN_37,2
94724S_GOLDEN_38,1
94724S_GOLDEN_39,1
94724S_GOLDEN_40,2
94724S_GOLDEN_41,0
94724S_GOLDEN_42,0
94724S_GOLDEN_43,0
94732S_GRAY_36,0
94732S_L/GOLDEN_36,0
94732S_GRAY_37,0
94732S_L/GOLDEN_37,0
94732S_GRAY_38,0
94732S_L/GOLDEN_38,0
94732S_GRAY_39,0
94732S_L/GOLDEN_39,0
94732S_GRAY_40,0
94732S_L/GOLDEN_40,0
94732S_GRAY_41,0
94732S_L/GOLDEN_41,0
94733S_CHAMPAGNE_36,1
94733S_CHAMPAGNE_37,1
94733S_CHAMPAGNE_38,1
94733S_CHAMPAGNE_39,2
94733S_CHAMPAGNE_40,3
94734S_GRAY_36,0
94734S_L/GOLDEN_36,0
94734S_GRAY_37,0
94734S_L/GOLDEN_37,0
94734S_GRAY_38,0
94734S_L/GOLDEN_38,0
94734S_GRAY_39,2
94734S_L/GOLDEN_39,1
94734S_GRAY_40,2
94734S_L/GOLDEN_40,2
94734S_GRAY_41,0
94734S_L/GOLDEN_41,0
94791S_BEIGE_36,0
94791S_BEIGE_37,2
94791S_BEIGE_38,2
94791S_BEIGE_39,2
94791S_BEIGE_40,2
94791S_BEIGE_41,1
94791S_BEIGE_42,0
94791S_BEIGE_43,0
94802S_BLACK_36,2
94802S_BLACK_37,2
94802S_BLACK_38,2
94802S_BLACK_39,3
94802S_BLACK_40,4
94802S_BLACK_41,2
94802S_BLACK_42,0
94802S_BLACK_43,0
94803S_BLACK_36,1
94803S_BLACK_37,0
94803S_BLACK_38,2
94803S_BLACK_39,2
94803S_BLACK_40,1
94803S_BLACK_41,0
94803S_BLACK_42,0
94803S_BLACK_43,0
94856S_MAHROON_36,2
94856S_MAHROON_37,2
94856S_MAHROON_38,1
94856S_MAHROON_39,1
94856S_MAHROON_40,1
94856S_MAHROON_41,0
94867S_BLACK_36,1
94867S_BLACK_37,1
94867S_BLACK_38,1
94867S_BLACK_39,1
94867S_BLACK_40,0
94867S_BLACK_41,1
94867S_BLACK_42,0
94867S_BLACK_43,0
94869S_COFFEE_36,1
94869S_D/BEIGE_36,2
94869S_D/BEIGE_37,0
94869S_D/BEIGE_38,4
94869S_D/BEIGE_39,2
94869S_D/BEIGE_40,1
94869S_D/BEIGE_41,0
94869S_D/BEIGE_42,0
94869S_D/BEIGE_43,0
94873S_BEIGE_36,3
94873S_BLACK_36,0
94873S_BEIGE_37,3
94873S_BEIGE_38,3
94873S_BEIGE_39,3
94873S_BEIGE_40,2
94873S_BEIGE_41,1
94873S_BEIGE_42,0
94873S_BEIGE_43,0
94874S_BLACK_36,0
94874S_KHAKI_36,0
94874S_BLACK_37,0
94874S_KHAKI_37,0
94874S_BLACK_38,0
94874S_KHAKI_38,0
94874S_BLACK_39,0
94874S_KHAKI_39,0
94874S_BLACK_40,0
94874S_KHAKI_40,0
94874S_BLACK_41,0
94874S_KHAKI_41,0
94874S_BLACK_42,0
94874S_KHAKI_42,0
94874S_BLACK_43,0
94874S_KHAKI_43,0
94876S_BLACK_36,0
94877S_BLACK_36,2
94877S_BLACK_37,2
94877S_BLACK_38,3
94877S_BLACK_39,3
94877S_BLACK_40,3
94877S_BLACK_41,0
94877S_BLACK_42,0
94877S_BLACK_43,0
94878S_BLACK_36,1
94878S_CAMEL_36,0
94878S_BLACK_37,2
94878S_CAMEL_37,0
94878S_BLACK_38,1
94878S_CAMEL_38,0
94878S_BLACK_39,2
94878S_CAMEL_39,0
94878S_BLACK_40,1
94878S_CAMEL_40,0
94878S_BLACK_41,0
94878S_CAMEL_41,0
94878S_BLACK_42,0
94878S_CAMEL_42,0
94878S_BLACK_43,0
94878S_CAMEL_43,0
94879S_CAMEL_36,0
94879S_CAMEL_37,0
94879S_CAMEL_38,0
94879S_CAMEL_39,0
94879S_CAMEL_40,0
94879S_CAMEL_41,0
94879S_CAMEL_42,0
94879S_CAMEL_43,0
94883S_BLACK_36,1
94883S_BLACK_37,1
94883S_BLACK_38,1
94883S_BLACK_39,2
94883S_BLACK_40,0
94883S_BLACK_41,1
94883S_BLACK_42,0
94883S_BLACK_43,0
94888S_BLACK_36,0
94888S_BROWN_36,0
94888S_NAVY_36,0
94888S_BEIGE_37,1
94888S_BLACK_37,0
94888S_BROWN_37,0
94888S_NAVY_37,0
94888S_BEIGE_38,1
94888S_BLACK_38,0
94888S_BROWN_38,0
94888S_NAVY_38,0
94888S_BEIGE_39,1
94888S_BLACK_39,0
94888S_BROWN_39,0
94888S_NAVY_39,0
94888S_BEIGE_40,1
94888S_BLACK_40,0
94888S_BROWN_40,0
94888S_NAVY_40,0
94888S_BEIGE_41,0
94888S_BLACK_41,0
94888S_BROWN_41,0
94888S_NAVY_41,0
94888S_BEIGE_42,0
94888S_BLACK_42,0
94888S_BROWN_42,0
94888S_NAVY_42,0
94888S_BEIGE_43,0
94888S_BLACK_43,0
94888S_NAVY_43,0
94889S_L/BEIGE_36,0
94889S_L/BEIGE_37,2
94889S_GRAY_38,0
94889S_L/BEIGE_38,3
94889S_L/BEIGE_39,2
94889S_GRAY_40,0
94889S_L/BEIGE_40,2
94889S_GRAY_41,0
94889S_L/BEIGE_41,0
94889S_GRAY_42,0
94889S_L/BEIGE_42,0
94889S_L/BEIGE_43,0
94890S_BLACK_36,0
94890S_BLACK_37,0
94890S_BLACK_38,0
94890S_BLACK_39,0
94890S_BLACK_40,0
94890S_BLACK_41,0
94890S_BLACK_42,0
94890S_BLACK_43,0
94892S_L/GOLDEN_36,1
94892S_L/GOLDEN_37,1
94892S_L/GOLDEN_38,2
94892S_L/GOLDEN_39,3
94892S_L/GOLDEN_40,2
94892S_L/GOLDEN_41,0
94892S_L/GOLDEN_42,0
94892S_L/GOLDEN_43,0
94900S_BLACK_36,0
94900S_KHAKI_36,0
94900S_BLACK_37,0
94900S_KHAKI_37,0
94900S_BLACK_38,0
94900S_KHAKI_38,0
94900S_BLACK_39,0
94900S_KHAKI_39,0
94900S_BLACK_40,0
94900S_KHAKI_40,0
94900S_BLACK_41,0
94900S_KHAKI_41,0
94900S_BLACK_42,0
94900S_KHAKI_42,0
94900S_BLACK_43,0
94900S_KHAKI_43,0
94918S_BLACK_36,1
94918S_BROWN_36,2
94918S_BLACK_37,3
94918S_BROWN_37,1
94918S_BLACK_38,2
94918S_BROWN_38,3
94918S_BLACK_39,4
94918S_BROWN_39,3
94918S_BLACK_40,5
94918S_BROWN_40,5
94918S_BLACK_41,3
94918S_BROWN_41,2
94918S_BLACK_42,0
94918S_BROWN_42,0
94918S_BLACK_43,0
94918S_BROWN_43,0
94975S_WHITE_36,0
94975S_WHITE_37,0
94975S_WHITE_38,0
94975S_WHITE_39,0
94975S_WHITE_40,0
94975S_WHITE_41,0
94978S_BEIGE_36,1
94978S_NAVY_36,0
94978S_BEIGE_37,2
94978S_NAVY_37,0
94978S_BEIGE_38,2
94978S_NAVY_38,0
94978S_BEIGE_39,2
94978S_NAVY_39,0
94978S_BEIGE_40,2
94978S_NAVY_40,0
94978S_BEIGE_41,1
94978S_NAVY_41,0
94989S_BEIGE_36,1
94989S_BEIGE_37,2
94989S_NAVY_37,2
94989S_BEIGE_38,1
94989S_NAVY_38,1
94989S_BEIGE_39,2
94989S_NAVY_39,1
94989S_BEIGE_40,2
94989S_NAVY_40,1
94989S_BEIGE_41,0
94989S_NAVY_41,1
94991S_BEIGE_36,1
94991S_BEIGE_37,4
94991S_BEIGE_38,3
94991S_BEIGE_39,4
94991S_BEIGE_40,3
94991S_BEIGE_41,2
94996S_BLACK_36,3
94996S_BLACK_37,1
94996S_BLACK_38,2
94996S_BLACK_39,2
94996S_BLACK_40,1
94996S_BLACK_41,0
94999S_BEIGE_36,2
94999S_PINK_36,1
94999S_BEIGE_37,2
94999S_BEIGE_38,0
94999S_BEIGE_39,1
94999S_BEIGE_40,2
94999S_BEIGE_41,2
95001S_BEIGE_36,1
95001S_BEIGE_37,1
95001S_BEIGE_38,1
95001S_BEIGE_39,2
95001S_BEIGE_40,0
95001S_BEIGE_41,1
95001S_NAVY_41,1
95003S_BLACK_36,1
95003S_BLACK_37,0
95003S_BLACK_38,2
95003S_BLACK_39,2
95003S_BLACK_40,1
95003S_BLACK_41,0
95007S_BLACK_36,2
95007S_BLACK_37,4
95007S_BLACK_38,3
95007S_BLACK_39,2
95007S_BLACK_40,1
95007S_BLACK_41,2
95008S_BLACK_36,2
95008S_BLACK_37,4
95008S_BLACK_38,4
95008S_BLACK_39,4
95008S_BLACK_40,3
95008S_BLACK_41,1
95012S_GUN_36,1
95012S_L/GOLDEN_36,2
95012S_GUN_37,0
95012S_L/GOLDEN_37,4
95012S_GUN_38,2
95012S_L/GOLDEN_38,3
95012S_GUN_39,2
95012S_L/GOLDEN_39,4
95012S_GUN_40,2
95012S_L/GOLDEN_40,4
95012S_GUN_41,1
95012S_L/GOLDEN_41,0
95017S_BLACK_36,2
95017S_BLACK_37,2
95017S_BLACK_38,4
95017S_BLACK_39,1
95017S_BLACK_40,2
95017S_BLACK_41,0
95022S_BROWN_36,1
95022S_GOLDEN_36,2
95022S_BROWN_37,2
95022S_BROWN_38,6
95022S_BROWN_39,1
95022S_BROWN_40,1
95022S_BROWN_41,0
95040S_BEIGE_36,0
95040S_BLACK_36,0
95040S_BEIGE_37,0
95040S_BLACK_37,0
95040S_BEIGE_38,0
95040S_BLACK_38,0
95040S_BEIGE_39,0
95040S_BLACK_39,0
95040S_BLACK_40,0
95040S_BEIGE_41,0
95040S_BLACK_41,0
95045S_L/GOLDEN_36,1
95045S_L/GOLDEN_37,0
95045S_L/GOLDEN_38,3
95045S_L/GOLDEN_39,3
95045S_L/GOLDEN_40,1
95045S_L/GOLDEN_41,0
95045S_L/GOLDEN_42,0
95061S_BLACK_36,1
95061S_BLACK_37,2
95061S_BLACK_38,1
95061S_BLACK_39,1
95061S_BLACK_40,2
95061S_BLACK_41,1
95061S_BLACK_42,0
95073S_NAVY_36,0
95073S_NAVY_37,0
95073S_NAVY_38,0
95073S_NAVY_39,0
95073S_NAVY_40,1
95073S_NAVY_41,2
95073S_NAVY_42,0
95093S_BEIGE_36,1
95093S_BLACK_36,1
95093S_BLACK_37,1
95093S_BLACK_38,2
95093S_BLACK_39,1
95093S_BLACK_40,1
95093S_BLACK_41,0
95093S_BLACK_42,0
95093S_BLACK_43,0
95129S_BLACK_36,1
95129S_BLACK_37,2
95129S_BLACK_38,0
95129S_BLACK_39,0
95129S_BLACK_40,0
95129S_BLACK_41,0
