13087B_BLACK_0,0
13087B_BROWN_0,0
13087B_WHITE_0,1
13220B_BLACK_0,0
13220B_BLUE_0,0
13220B_FOWN_0,0
13220B_GRAY_0,0
04146B_BLACK_0,0
04163B_CHECO_0,0
04174B_GOLDEN_0,4
04176B_CHECO_0,2
03705B_BLACK_0,2
03705B_FOWN_0,3
03705B_GREEN_0,1
03705B_LEMON_0,0
03705B_MAHROON_0,4
03705B_ORANGE_0,0
03705B_WHITE_0,0
03731B_BLACK_0,1
03731B_BROWN_0,0
03731B_FOWN_0,0
03731B_MAHROON_0,0
03787B_BLACK_0,4
03787B_BLUE_0,4
03787B_BROWN_0,4
03787B_FOWN_0,1
03787B_GREEN_0,1
03787B_MASTARD_0,6
03883B_BLACK_0,0
03883B_BLUE_0,1
03883B_BROWN_0,2
03883B_FOWN_0,3
03883B_MAHROON_0,4
03883B_MASTARD_0,3
03887B_BLACK_0,2
03887B_BROWN_0,3
03887B_BROWN J_0,4
03887B_FOWN_0,5
03887B_WHITE_0,0
03925B_BLACK_0,0
03925B_FOWN_0,1
03925B_MASTARD_0,0
03926B_BLACK_0,0
03926B_BROWN_0,0
03926B_FOWN_0,0
03926B_MAHROON_0,0
03926B_WHITE_0,3
02959B_BLACK_0,1
02959B_BROWN_0,1
02959B_BROWN J_0,3
02959B_FOWN_0,1
02959B_FOWN J_0,0
02959B_GRAY_0,0
02959B_GREEN_0,0
02959B_MAHROON_0,0
02959B_MASTARD_0,1
02959B_ORANGE_0,0
02959B_YELLOW_0,5
03171B_BLACK_0,0
03171B_BROWN_0,0
03171B_BROWN J_0,3
03171B_FOWN_0,0
03171B_FOWN J_0,1
03171B_GOLDEN_0,0
03171B_GREEN_0,1
03171B_MAHROON_0,0
03171B_MASTARD_0,0
03171B_ORANGE_0,2
03171B_SILVER_0,1
03171B_WHITE_0,0
03171B_YELLOW_0,2
00906B_WHITE_0,1
01711B_WHITE_0,0
03495B_BLACK_0,2
03495B_BROWN_0,2
03495B_FOWN_0,0
03495B_GRAY_0,0
03495B_MASTARD_0,0
03495B_SILVER_0,0
03618B_BLACK_0,1
03618B_BROWN J_0,5
03618B_FOWN_0,3
03618B_MASTARD_0,1
03618B_ORANGE_0,2
03618B_WHITE_0,1
03135B_GL/SL_0,3
03135B_GOLDEN_0,1
03135B_PEACH_0,5
04199B_GOLDEN_0,4
04200B_ANTIQUE_0,4
04201B_GOLDEN_0,4
04202B_MAHROON_0,4
04011B_GOLDEN_0,2
13261B_GL/SL_0,0
12785B_GOLDEN_0,3
12785B_GRAY_0,1
12936B_GOLDEN_0,3
12936B_PEACH_0,2
12936B_PINK_0,2
12936B_PURPLE_0,0
04007B_BLUE_0,2
04007B_GOLDEN_0,1
04007B_GRAY_0,0
04007B_GREEN_0,0
04007B_MAHROON_0,3
03972B_BLACK_0,0
03972B_BROWN_0,0
03972B_FOWN_0,0
03972B_GOLDEN_0,0
03972B_RED_0,0
03972B_SILVER_0,0
03945B_BROWN_0,5
03945B_FOWN_0,6
03945B_GRAY_0,5
03945B_GREEN_0,9
03945B_WHITE_0,6
04167B_SILVER_0,2
03930B_FEROZI_0,0
03930B_GOLDEN_0,4
03930B_GREEN_0,4
03930B_MAHROON_0,7
03900B_BLACK_0,3
03900B_BROWN_0,0
03900B_FOWN_0,0
03900B_WHITE_0,0
03762B_BLACK_0,3
03762B_BLUE_0,1
03762B_BROWN_0,4
03762B_GRAY_0,6
03762B_WHITE_0,3
02777B_SILVER_0,3
03532B_BROWN_0,0
03532B_GOLDEN_0,0
03532B_MAHROON_0,0
03817B_BLACK_0,0
03817B_FOWN_0,0
03817B_GREY_0,0
03848B_BLACK_0,0
03848B_BROWN_0,0
03848B_GOLDEN_0,0
03893B_BROWN_0,0
03893B_FOWN_0,0
04069B_BLACK_0,0
04069B_BROWN_0,0
04069B_GOLDEN_0,0
04069B_RED_0,0
12960B_BLACK_0,0
12960B_BLUE_0,2
12960B_FOWN_0,1
12960B_MASTARD_0,0
12992B_BLACK_0,0
12992B_FOWN_0,1
12992B_MASTARD_0,1
12992B_RED_0,1
13001B_BLACK_0,4
13001B_BLACK/WHITE_0,0
13001B_FEROZI_0,0
13001B_FOWN_0,3
13001B_PINK_0,1
13001B_WHITE_0,3
13079B_BLACK_0,0
13079B_BLUE_0,0
13079B_GRAY_0,0
13081B_BLACK_0,3
13081B_BLUE_0,1
13081B_FOWN_0,3
13084B_BLACK_0,0
13084B_BLUE_0,0
13084B_GRAY_0,0
13046B_BROWN_0,0
13046B_FEROZI_0,0
12977B_BLACK_0,0
12977B_BROWN_0,0
12977B_FOWN_0,0
12977B_RED_0,0
12978B_BLACK_0,0
12978B_BLUE_0,0
12978B_BROWN_0,0
12978B_FOWN_0,0
12899B_BLACK_0,0
12899B_GOLDEN_0,0
12899B_GRAY_0,0
12900B_BROWN_0,0
12900B_GOLDEN_0,0
12900B_GRAY_0,0
03938B_RED_0,0
03938B_YELLOW_0,2
03899B_FOWN_0,0
03899B_GRAY_0,0
03899B_PEACH_0,0
03899B_WHITE_0,0
03872B_BLACK_0,0
03872B_BLUE_0,0
03780B_BLACK_0,0
03780B_BROWN_0,0
03780B_FOWN_0,0
03780B_MAHROON_0,0
03732B_BLACK_0,0
03732B_FOWN_0,0
03732B_ORANGE_0,0
03732B_RED_0,0
03732B_WHITE_0,0
03732B_YELLOW_0,0
12589B_BLACK_0,0
12589B_BLUE_0,0
12589B_BROWN_0,0
12589B_MAHROON_0,0
12589B_RED_0,0
12593B_BLACK_0,0
12593B_BLUE_0,0
12593B_BROWN_0,0
12593B_MAHROON_0,0
12593B_RED_0,0
12693B_BLACK_0,0
12693B_BLUE_0,0
12693B_MAHROON_0,0
12693B_RED_0,0
12694B_BLACK_0,0
12694B_BLUE_0,0
12694B_BROWN_0,0
12694B_MAHROON_0,0
12694B_RED_0,0
03616B_BROWN_0,0
03612B_BLACK_0,0
03612B_BROWN_0,0
03612B_FOWN_0,1
03612B_MAHROON_0,0
03613B_BLACK_0,0
03613B_BLUE_0,0
02761B_BROWN_0,0
02761B_FOWN_0,0
02761B_MAHROON_0,0
02761B_WHITE_0,0
03533B_BLACK_0,0
03533B_BLUE_0,0
03533B_BROWN_0,0
03533B_FOWN_0,0
03519B_BLACK_0,0
03519B_BROWN_0,0
03519B_FOWN_0,0
03519B_PEACH_0,0
03519B_WHITE_0,0
03596B_BLACK_0,0
03596B_FOWN_0,0
03596B_ORANGE_0,0
03620B_BLACK_0,0
03620B_BROWN_0,0
03620B_GOLDEN_0,0
03620B_SILVER_0,0
03777B_BLACK_0,0
03777B_BLUE_0,0
03777B_BROWN_0,0
03777B_FOWN_0,0
03864B_BLACK_0,0
03864B_FOWN_0,0
03864B_WHITE_0,0
12950B_BLACK_0,0
12950B_BLUE_0,0
12950B_GOLDEN_0,0
12950B_PURPLE_0,0
12950B_RED_0,0
12951B_BLACK_0,0
12951B_BLUE_0,0
12951B_FEROZI_0,0
12951B_GOLDEN_0,0
12951B_PURPLE_0,0
12951B_RED_0,0
12953B_BLUE_0,0
12953B_FEROZI_0,0
12953B_GOLDEN_0,0
12953B_GREEN_0,0
12953B_PINK_0,0
12953B_PURPLE_0,0
12953B_RED_0,0
12896B_BLACK_0,1
12896B_GRAY_0,0
12896B_GREEN_0,0
12904B_BLACK_0,0
12904B_BLUE_0,0
12904B_MASTARD_0,0
12904B_PURPLE_0,0
12905B_BLACK_0,0
12905B_BLUE_0,0
12905B_MASTARD_0,0
12905B_PURPLE_0,0
12967B_BLACK_0,0
12967B_BLUE_0,1
12967B_RED_0,0
13028B_BLACK_0,0
13028B_FOWN_0,0
13028B_PINK_0,0
13028B_RED_0,1
13028B_WHITE_0,0
03819B_BEIGE_0,1
03819B_BLUE_0,0
03819B_FOWN_0,0
03819B_MASTARD_0,1
03819B_RED_0,0
03845B_BLACK_0,0
03845B_BLUE_0,0
03845B_FOWN_0,0
04083B_BLACK_0,0
04083B_PINK_0,0
04083B_RED_0,0
13135B_BLACK_0,0
13135B_GRAY_0,0
13135B_PINK_0,0
13147B_BLACK_0,0
13147B_MAHROON_0,0
13357B_FOWN_0,0
13262B_BLACK_0,0
13262B_BLUE_0,0
13262B_GOLDEN_0,1
13263B_BLACK_0,0
13263B_BLUE_0,0
13263B_GOLDEN_0,0
13264B_BLACK_0,0
13264B_BLUE_0,0
13264B_BROWN_0,0
13264B_GOLDEN_0,0
13130B_BLACK_0,0
13130B_BLUE_0,0
13130B_PURPLE_0,0
13130B_RED_0,2
13133B_GOLDEN_0,0
13133B_SILVER_0,0
13063B_BLACK_0,0
13063B_FOWN_0,0
13063B_GOLDEN_0,0
13063B_SILVER_0,0
12771B_BLACK_0,2
12771B_BROWN_0,0
12771B_GOLDEN_0,0
12771B_GREEN_0,0
12771B_PEACH_0,0
12771B_PINK_0,1
12771B_RED_0,0
12980B_GOLDEN_0,0
12980B_MULTI_0,0
12981B_BLACK_0,0
13029B_GOLDEN_0,0
13029B_SILVER_0,0
12958B_BLACK_0,2
12958B_GOLDEN_0,0
12958B_RED_0,1
12938B_BLACK_0,0
12938B_BLUE_0,0
12938B_BROWN_0,0
12938B_GOLDEN_0,0
12938B_GRAY_0,0
12938B_MAHROON_0,0
12938B_PURPLE_0,0
04143B_WHITE_0,0
03865B_BLACK_0,0
03865B_GOLDEN_0,0
03865B_PINK_0,0
03865B_RED_0,2
03865B_WHITE_0,0
03866B_BLACK_0,0
03866B_GOLDEN_0,1
03866B_PINK_0,1
03866B_RED_0,0
03866B_WHITE_0,0
03867B_BLACK_0,0
03867B_BROWN_0,0
03867B_FOWN_0,0
03867B_GOLDEN_0,0
12664B_BLACK_0,0
35057S_GRAY_36,0
35057S_GRAY_37,0
35057S_GRAY_38,0
35057S_GRAY_39,0
35057S_GRAY_40,0
35057S_GRAY_41,0
35057S_GRAY_42,0
35057S_GRAY_43,0
35413S_FOWN_36,1
35413S_FOWN_37,0
35413S_FOWN_38,4
35413S_FOWN_39,7
35413S_FOWN_40,4
35413S_FOWN_41,2
35413S_FOWN_42,1
35225S_PEACH_36,1
35225S_PEACH_37,2
35225S_PEACH_38,1
35225S_PEACH_39,2
35225S_PEACH_40,2
35225S_PEACH_41,0
35225S_PEACH_42,1
35225S_PEACH_43,0
35427S_GOLDEN_36,1
35427S_GOLDEN_37,2
35427S_GOLDEN_38,2
35427S_GOLDEN_39,3
35427S_GOLDEN_40,1
35427S_GOLDEN_41,2
35427S_GOLDEN_42,1
35427S_GOLDEN_43,1
35415S_BLACK_36,2
35415S_BLACK_37,2
35415S_BLACK_38,5
35415S_BLACK_39,7
35415S_BLACK_40,5
35415S_BLACK_41,2
35415S_BLACK_42,1
35415S_BLACK_43,0
35476S_FOWN_36,2
35476S_MAHROON_36,1
35476S_FOWN_37,3
35476S_MAHROON_37,0
35476S_FOWN_38,5
35476S_MAHROON_38,0
35476S_FOWN_39,2
35476S_MAHROON_39,2
35476S_FOWN_40,2
35476S_MAHROON_40,0
35476S_FOWN_41,2
35476S_MAHROON_41,2
35476S_FOWN_42,0
35476S_MAHROON_42,1
35476S_FOWN_43,1
35476S_MAHROON_43,0
35477S_MAHROON_36,0
35477S_MAHROON_37,2
35477S_MAHROON_38,2
35477S_MAHROON_39,0
35477S_MAHROON_40,3
35477S_MAHROON_41,1
35477S_MAHROON_42,0
35478S_BROWN_36,1
35478S_FOWN_36,1
35478S_BROWN_37,3
35478S_FOWN_37,0
35478S_BROWN_38,2
35478S_FOWN_38,5
35478S_BROWN_39,2
35478S_FOWN_39,2
35478S_BROWN_40,0
35478S_FOWN_40,0
35478S_BROWN_41,0
35478S_FOWN_41,0
35478S_BROWN_42,0
35492S_BROWN_36,1
35492S_BROWN_37,0
35492S_BROWN_38,0
35492S_BROWN_39,0
35492S_BROWN_40,0
35492S_BROWN_41,0
35492S_BROWN_42,0
35492S_BROWN_43,0
35499S_FOWN_36,3
35499S_FOWN_37,2
35499S_FOWN_38,1
35499S_FOWN_39,2
35499S_FOWN_40,0
35499S_FOWN_41,0
35499S_FOWN_42,0
35474S_BLACK_36,1
35474S_BLACK_37,0
35474S_BLACK_38,0
35474S_BLACK_39,0
35474S_BLACK_40,2
35474S_BLACK_41,0
35474S_BLACK_42,0
35474S_BLACK_43,0
34723S_BLACK_36,1
34723S_BROWN_36,0
34723S_GOLDEN_36,0
34723S_PEACH_36,0
34723S_SILVER_36,0
34723S_WHITE_36,0
34723S_BROWN_37,0
34723S_GOLDEN_37,0
34723S_PEACH_37,0
34723S_SILVER_37,0
34723S_WHITE_37,0
34723S_BLACK_38,0
34723S_BROWN_38,0
34723S_PEACH_38,0
34723S_SILVER_38,0
34723S_WHITE_38,0
34723S_BLACK_39,0
34723S_BROWN_39,0
34723S_GOLDEN_39,0
34723S_PEACH_39,1
34723S_SILVER_39,0
34723S_WHITE_39,1
34723S_BLACK_40,3
34723S_BROWN_40,0
34723S_GOLDEN_40,1
34723S_PEACH_40,0
34723S_SILVER_40,0
34723S_WHITE_40,0
34723S_BLACK_41,0
34723S_BROWN_41,0
34723S_GOLDEN_41,0
34723S_PEACH_41,0
34723S_SILVER_41,0
34723S_WHITE_41,0
34723S_BLACK_42,1
34723S_BROWN_42,0
34723S_GOLDEN_42,0
34723S_PEACH_42,0
34723S_SILVER_42,0
34723S_WHITE_42,0
34723S_BLACK_43,0
34723S_BROWN_43,0
34723S_GOLDEN_43,0
34723S_PEACH_43,0
34723S_SILVER_43,0
34723S_WHITE_43,0
34740S_BLACK_36,0
34740S_BLACK_37,0
34740S_BLACK_38,0
34740S_BLACK_39,1
34740S_BLACK_40,0
34740S_BLACK_41,1
34740S_BLACK_42,0
34788S_PEACH_36,0
34788S_PEACH_37,0
34788S_PEACH_38,0
34788S_PEACH_39,0
34788S_PEACH_40,0
34788S_PEACH_41,0
34788S_PEACH_42,0
34788S_PEACH_43,0
35843S_BLACK_36,1
35843S_BLACK_37,2
35843S_BLACK_38,3
35843S_BLACK_39,3
35843S_BLACK_40,3
35843S_BLACK_41,0
35846S_GOLDEN_36,0
35846S_GOLDEN_37,0
35846S_GOLDEN_38,0
35846S_GOLDEN_39,0
35846S_GOLDEN_40,0
35846S_GOLDEN_41,0
35846S_GOLDEN_42,0
35846S_GOLDEN_43,0
35863S_BLACK_36,1
35863S_BLACK_37,0
35863S_BLACK_38,2
35863S_BLACK_39,1
35863S_BLACK_40,2
35863S_BLACK_41,1
35863S_BLACK_42,1
35863S_BLACK_43,0
35869S_BLACK_36,1
35869S_GOLDEN_36,0
35869S_BLACK_37,1
35869S_GOLDEN_37,0
35869S_BLACK_38,5
35869S_GOLDEN_38,0
35869S_BLACK_39,5
35869S_GOLDEN_39,0
35869S_BLACK_40,3
35869S_GOLDEN_40,0
35869S_BLACK_41,2
35869S_GOLDEN_41,0
35869S_BLACK_42,0
35869S_GOLDEN_42,1
35869S_BLACK_43,0
35869S_GOLDEN_43,0
35871S_BLACK_36,1
35871S_BLACK_37,1
35871S_BLACK_38,3
35871S_BLACK_39,2
35871S_BLACK_40,1
35871S_BLACK_41,1
35871S_BLACK_42,1
35871S_BLACK_43,0
35877S_BLACK_36,2
35877S_FOWN_36,1
35877S_BLACK_37,0
35877S_FOWN_37,3
35877S_BLACK_38,0
35877S_FOWN_38,5
35877S_BLACK_39,4
35877S_FOWN_39,6
35877S_BLACK_40,4
35877S_FOWN_40,6
35877S_BLACK_41,1
35877S_FOWN_41,4
35877S_BLACK_42,1
35877S_FOWN_42,2
35877S_BLACK_43,1
35877S_FOWN_43,1
35897S_BLACK_36,0
35897S_BLACK_37,1
35897S_BLACK_38,0
35897S_BLACK_39,0
35897S_BLACK_40,0
35897S_BLACK_41,0
35897S_BLACK_42,0
35897S_BLACK_43,0
35901S_BLACK_36,1
35901S_FOWN_36,2
35901S_BLACK_37,0
35901S_FOWN_37,2
35901S_BLACK_38,1
35901S_FOWN_38,2
35901S_BLACK_39,1
35901S_FOWN_39,1
35901S_BLACK_40,0
35901S_FOWN_40,1
35901S_BLACK_41,0
35901S_FOWN_41,0
35901S_BLACK_42,1
35901S_FOWN_42,2
35901S_BLACK_43,0
35901S_FOWN_43,0
35910S_WHITE_36,1
35910S_WHITE_37,1
35910S_WHITE_38,3
35910S_WHITE_39,4
35910S_WHITE_40,0
35910S_WHITE_41,1
35910S_WHITE_42,0
34195S_WHITE_35,0
34195S_GOLDEN_36,0
34195S_GRAY_36,1
34195S_PEACH_36,2
34195S_SILVER_36,0
34195S_WHITE_36,0
34195S_GOLDEN_37,2
34195S_GRAY_37,2
34195S_WHITE_37,0
34195S_GOLDEN_38,0
34195S_GRAY_38,1
34195S_WHITE_38,0
34195S_GOLDEN_39,2
34195S_GRAY_39,1
34195S_WHITE_39,0
34195S_WHITE_40,0
34195S_WHITE_41,0
34195S_WHITE_42,0
35537S_GRAY_36,0
35537S_GRAY_37,0
35537S_GRAY_38,0
35537S_GRAY_39,0
35537S_GRAY_40,0
35537S_GRAY_41,0
35550S_BROWN_36,0
35550S_BROWN_37,0
35550S_BROWN_38,0
35550S_BROWN_39,0
35550S_BROWN_40,0
35550S_BROWN_41,0
35550S_BROWN_42,0
35554S_FOWN_36,0
35554S_FOWN_37,2
35554S_FOWN_38,10
35554S_FOWN_39,8
35554S_FOWN_40,3
35554S_FOWN_41,0
35554S_FOWN_42,3
35556S_BLACK_36,3
35556S_BLACK_37,4
35556S_BLACK_38,6
35556S_BLACK_39,3
35556S_BLACK_40,5
35556S_BLACK_41,2
35556S_BLACK_42,0
35556S_BLACK_43,0
35562S_FOWN_36,2
35562S_FOWN_37,2
35562S_FOWN_38,5
35562S_FOWN_39,5
35562S_FOWN_40,1
35562S_FOWN_41,1
35562S_FOWN_42,0
35578S_FOWN_36,1
35578S_FOWN_37,2
35578S_FOWN_38,3
35578S_FOWN_39,3
35578S_FOWN_40,1
35578S_FOWN_41,2
35578S_FOWN_42,0
35591S_BROWN_36,2
35591S_BROWN_37,2
35591S_BROWN_38,6
35591S_BROWN_39,4
35591S_BROWN_40,2
35591S_BROWN_41,0
35591S_BROWN_42,0
35591S_BROWN_43,0
35598S_SILVER_36,0
35598S_SILVER_37,0
35598S_SILVER_38,2
35598S_SILVER_39,1
35598S_SILVER_40,3
35598S_SILVER_41,1
35598S_SILVER_42,1
35599S_GOLDEN_36,0
35599S_GOLDEN_37,0
35599S_GOLDEN_38,0
35599S_GOLDEN_39,0
35599S_GOLDEN_40,0
35599S_GOLDEN_41,0
35599S_GOLDEN_42,0
35614S_GRAY_36,0
35614S_GRAY_37,0
35614S_GRAY_38,0
35614S_GRAY_39,0
35614S_GRAY_40,0
35614S_GRAY_41,0
35614S_GRAY_42,1
35614S_GRAY_43,0
35655S_FOWN_36,1
35655S_FOWN_37,0
35655S_FOWN_38,1
35655S_FOWN_39,0
35655S_FOWN_40,0
35655S_FOWN_41,0
35655S_FOWN_42,0
35668S_SILVER_36,3
35668S_SILVER_37,3
35668S_SILVER_38,4
35668S_SILVER_39,5
35668S_SILVER_40,1
35668S_SILVER_41,3
35668S_SILVER_42,1
35668S_SILVER_43,0
35634S_SILVER_36,1
35634S_SILVER_37,1
35634S_SILVER_38,0
35634S_SILVER_39,1
35634S_SILVER_40,1
35634S_SILVER_41,1
35634S_SILVER_42,1
35634S_SILVER_43,0
35715S_SILVER_36,2
35715S_SILVER_37,2
35715S_SILVER_38,4
35715S_SILVER_39,5
35715S_SILVER_40,3
35715S_SILVER_41,3
35715S_SILVER_42,0
35715S_SILVER_43,0
35680S_GOLDEN_36,1
35680S_GOLDEN_37,1
35680S_GOLDEN_38,3
35680S_GOLDEN_39,2
35680S_GOLDEN_40,1
35680S_GOLDEN_41,1
35680S_GOLDEN_42,1
35680S_GOLDEN_43,0
35743S_GOLDEN_36,0
35743S_GOLDEN_37,0
35743S_GOLDEN_38,0
35743S_GOLDEN_39,0
35743S_GOLDEN_40,0
35743S_GOLDEN_41,0
35743S_GOLDEN_42,0
35760S_SILVER_36,0
35760S_SILVER_37,0
35760S_SILVER_38,0
35760S_SILVER_39,0
35760S_SILVER_40,0
35760S_SILVER_41,0
35760S_SILVER_42,0
35760S_SILVER_43,0
35761S_FOWN_36,2
35761S_FOWN_37,1
35761S_FOWN_38,0
35761S_FOWN_39,3
35761S_FOWN_40,1
35761S_FOWN_41,2
35761S_FOWN_42,0
35761S_FOWN_43,0
35765S_SILVER_36,0
35765S_SILVER_37,0
35765S_SILVER_38,1
35765S_SILVER_39,1
35765S_SILVER_40,0
35765S_SILVER_41,0
35765S_SILVER_42,0
35765S_SILVER_43,0
35786S_GOLDEN_36,1
35786S_GOLDEN_37,0
35786S_GOLDEN_38,3
35786S_GOLDEN_39,1
35786S_GOLDEN_40,2
35786S_GOLDEN_41,2
35811S_WHITE_36,0
35811S_WHITE_37,0
35811S_WHITE_38,1
35811S_WHITE_39,1
35811S_WHITE_40,0
35811S_WHITE_41,0
35811S_WHITE_42,1
35811S_WHITE_43,0
60966S_GOLDEN_36,0
60966S_PEACH_36,0
60966S_GOLDEN_37,1
60966S_PEACH_37,0
60966S_GOLDEN_38,0
60966S_PEACH_38,1
60966S_GOLDEN_39,0
60966S_PEACH_39,1
60966S_GOLDEN_40,0
60966S_PEACH_40,0
60966S_GOLDEN_41,0
60966S_PEACH_41,0
60966S_GOLDEN_42,0
60966S_PEACH_42,0
61144S_PEACH_36,0
61145S_FOWN_36,0
61145S_FOWN_37,0
61145S_FOWN_38,0
61145S_FOWN_39,2
61145S_FOWN_40,2
61145S_FOWN_41,1
61145S_FOWN_42,0
61146S_GOLDEN_36,0
61146S_GOLDEN_37,0
61146S_GOLDEN_38,0
61146S_GOLDEN_39,0
61146S_GOLDEN_40,0
61146S_GOLDEN_41,1
61146S_GOLDEN_42,0
61109S_GOLDEN_36,0
61109S_GOLDEN_37,0
61109S_GOLDEN_38,0
61109S_GOLDEN_39,3
61109S_GOLDEN_40,0
61109S_GOLDEN_41,3
61109S_GOLDEN_42,0
61123S_BROWN_36,1
61123S_BROWN_37,1
61123S_BROWN_38,1
61123S_BROWN_39,2
61123S_BROWN_40,2
61123S_BROWN_41,1
61123S_BROWN_42,0
61041S_GRAY_36,1
61041S_GRAY_37,3
61041S_GRAY_38,2
61041S_GRAY_39,0
61041S_GRAY_40,1
61041S_GRAY_41,0
61041S_GRAY_42,0
61052S_SILVER_36,0
61052S_SILVER_37,0
61052S_SILVER_38,1
61052S_SILVER_39,2
61052S_SILVER_40,0
61052S_SILVER_41,0
61052S_SILVER_42,0
61069S_SILVER_36,2
61069S_SILVER_37,0
61069S_SILVER_38,2
61069S_SILVER_39,1
61069S_SILVER_40,1
61069S_SILVER_41,2
61069S_SILVER_42,0
61027S_BROWN_37,0
61027S_BROWN_38,0
61027S_BROWN_39,0
61027S_BROWN_40,0
61027S_BROWN_41,0
61027S_BROWN_42,0
61004S_BLACK_36,0
61004S_BLACK_37,0
61004S_BLACK_38,0
61004S_BLACK_39,2
61004S_BLACK_40,3
61004S_BLACK_41,1
61004S_BLACK_42,0
61016S_PEACH_36,0
61016S_PEACH_37,0
61016S_PEACH_38,0
61016S_PEACH_39,0
61016S_PEACH_40,0
61016S_PEACH_41,0
61016S_PEACH_42,0
61019S_PEACH_36,0
61019S_PEACH_37,0
61019S_PEACH_38,0
61019S_PEACH_39,0
61019S_PEACH_40,0
61019S_PEACH_41,0
61019S_PEACH_42,0
60971S_GOLDEN_36,0
60971S_GOLDEN_37,2
60971S_GOLDEN_38,1
60971S_GOLDEN_39,0
60971S_GOLDEN_40,0
60971S_GOLDEN_41,0
60971S_GOLDEN_42,0
61139S_FOWN_36,0
61139S_FOWN_37,0
61139S_FOWN_38,0
61139S_FOWN_39,1
61139S_FOWN_40,0
61139S_FOWN_41,0
61139S_FOWN_42,0
61168S_GOLDEN_36,1
61168S_GOLDEN_37,0
61168S_GOLDEN_38,3
61168S_GOLDEN_39,3
61168S_GOLDEN_40,1
61168S_GOLDEN_41,2
61174S_FOWN_36,0
61174S_FOWN_37,0
61174S_FOWN_38,1
61174S_FOWN_39,1
61174S_FOWN_40,0
61174S_FOWN_41,0
61174S_FOWN_42,0
61174S_FOWN_43,0
61182S_GOLDEN_36,0
61182S_GOLDEN_37,1
61182S_GOLDEN_38,1
61182S_GOLDEN_39,1
61182S_GOLDEN_40,1
61182S_GOLDEN_41,0
61182S_GOLDEN_42,0
61184S_GOLDEN_36,0
61184S_GOLDEN_37,0
61184S_GOLDEN_38,1
61184S_GOLDEN_39,1
61184S_GOLDEN_40,0
61184S_GOLDEN_41,0
61184S_GOLDEN_42,0
61189S_GOLDEN_36,2
61189S_GOLDEN_37,4
61189S_GOLDEN_38,2
61189S_GOLDEN_39,5
61189S_GOLDEN_40,3
61189S_GOLDEN_41,1
61189S_GOLDEN_42,0
61196S_GOLDEN_36,1
61196S_GOLDEN_37,3
61196S_GOLDEN_38,3
61196S_GOLDEN_39,3
61196S_GOLDEN_40,1
61196S_GOLDEN_41,0
61196S_GOLDEN_42,0
61196S_GOLDEN_43,0
60891S_GOLDEN_36,1
60891S_GOLDEN_37,5
60891S_GOLDEN_38,2
60891S_GOLDEN_39,3
60891S_GOLDEN_40,4
60891S_GOLDEN_41,0
60951S_SILVER_36,0
60951S_SILVER_37,0
60951S_SILVER_38,0
60951S_SILVER_39,0
60951S_SILVER_40,2
60951S_SILVER_41,0
60951S_SILVER_42,0
72542S_GRAY_36,0
72542S_GRAY_37,0
72542S_GRAY_38,0
72542S_GRAY_39,1
72542S_GRAY_40,0
72542S_GRAY_41,0
72542S_GRAY_42,0
72582S_FOWN_36,0
72582S_FOWN_37,0
72582S_FOWN_38,0
72582S_FOWN_39,1
72582S_FOWN_40,0
72582S_FOWN_41,1
72582S_FOWN_42,0
72586S_SILVER_36,0
72586S_SILVER_37,3
72586S_SILVER_38,3
72586S_SILVER_39,1
72586S_SILVER_40,1
72586S_SILVER_41,1
72586S_SILVER_42,0
72591S_SILVER_36,1
72591S_SILVER_37,2
72591S_SILVER_38,2
72591S_SILVER_39,2
72591S_SILVER_40,2
72591S_SILVER_41,0
72591S_SILVER_42,0
72510S_BLACK_36,0
72510S_BLACK_37,2
72510S_BLACK_38,5
72510S_BLACK_39,5
72510S_BLACK_40,2
72510S_BLACK_41,1
72510S_BLACK_42,0
72504S_BROWN_36,1
72504S_BROWN_37,0
72504S_BROWN_38,3
72504S_BROWN_39,3
72504S_BROWN_40,1
72504S_BROWN_41,0
72504S_BROWN_42,0
72505S_GOLDEN_36,0
72505S_GOLDEN_37,1
72505S_GOLDEN_38,0
72505S_GOLDEN_39,0
72505S_GOLDEN_40,1
72505S_GOLDEN_41,0
72483S_PEACH_36,0
72483S_PEACH_37,0
72483S_PEACH_38,1
72483S_PEACH_39,0
72483S_PEACH_40,1
72483S_PEACH_41,0
72461S_SILVER_36,0
72461S_SILVER_37,1
72461S_SILVER_38,0
72461S_SILVER_39,0
72461S_SILVER_40,2
72461S_SILVER_41,0
72461S_SILVER_42,0
72512S_GOLDEN_36,0
72512S_GOLDEN_37,0
72512S_GOLDEN_38,1
72512S_GOLDEN_39,0
72512S_GOLDEN_40,0
72512S_GOLDEN_41,0
72512S_GOLDEN_42,0
72518S_MASTARD_36,1
72518S_MASTARD_37,0
72518S_MASTARD_38,3
72518S_MASTARD_39,3
72518S_MASTARD_40,1
72518S_MASTARD_41,1
72518S_MASTARD_42,0
72521S_GOLDEN_36,0
72521S_GOLDEN_37,0
72521S_GOLDEN_38,2
72521S_GOLDEN_39,3
72521S_GOLDEN_40,1
72521S_GOLDEN_41,0
72521S_GOLDEN_42,0
72524S_FOWN_36,0
72524S_FOWN_37,0
72524S_FOWN_38,1
72524S_FOWN_39,2
72524S_FOWN_40,1
72524S_FOWN_41,0
72524S_FOWN_42,0
72323S_FOWN_36,3
72323S_GRAY_36,2
72323S_FOWN_37,4
72323S_GRAY_37,5
72323S_FOWN_38,4
72323S_GRAY_38,4
72323S_FOWN_39,4
72323S_GRAY_39,2
72323S_FOWN_40,5
72323S_GRAY_40,1
72323S_FOWN_41,0
72323S_GRAY_41,2
72323S_FOWN_42,1
72323S_GRAY_42,0
72323S_FOWN_43,0
72323S_GRAY_43,0
72329S_FOWN_36,2
72329S_FOWN_37,2
72329S_FOWN_38,0
72329S_FOWN_39,5
72329S_FOWN_40,5
72329S_FOWN_41,2
72329S_FOWN_42,0
72334S_BLACK_36,0
72334S_BLACK_37,0
72334S_BLACK_38,0
72334S_BLACK_39,0
72334S_BLACK_40,0
72334S_BLACK_41,0
72334S_BLACK_42,0
72336S_MAHROON_36,0
72336S_MAHROON_37,0
72336S_MAHROON_38,0
72336S_MAHROON_39,2
72336S_MAHROON_40,0
72336S_MAHROON_41,2
72336S_MAHROON_42,0
72353S_BLUE_36,0
72353S_BLUE_37,0
72353S_BLUE_38,0
72353S_BLUE_39,0
72353S_BLUE_40,2
72353S_BLUE_41,1
72353S_BLUE_42,0
72360S_BLACK_36,1
72360S_BLACK_37,2
72360S_BLACK_38,2
72360S_BLACK_39,3
72360S_BLACK_40,1
72360S_BLACK_41,0
72360S_BLACK_42,0
72363S_NAVY_36,0
72363S_NAVY_37,3
72363S_NAVY_38,1
72363S_NAVY_39,2
72363S_NAVY_40,2
72363S_NAVY_41,1
72363S_NAVY_42,0
72365S_SILVER_36,1
72365S_SILVER_37,2
72365S_SILVER_38,1
72365S_SILVER_39,1
72365S_SILVER_40,0
72365S_SILVER_41,0
72365S_SILVER_42,0
72372S_PURPLE_36,0
72372S_PURPLE_37,0
72372S_PURPLE_38,0
72372S_PURPLE_39,0
72372S_PURPLE_40,0
72372S_PURPLE_41,0
72372S_PURPLE_42,0
72373S_FOWN_36,0
72373S_FOWN_37,3
72373S_FOWN_38,2
72373S_FOWN_39,1
72373S_FOWN_40,1
72373S_FOWN_41,1
72373S_FOWN_42,0
72382S_FOWN_36,0
72382S_FOWN_37,1
72382S_FOWN_38,0
72382S_FOWN_39,3
72382S_FOWN_40,2
72382S_FOWN_41,0
72382S_FOWN_42,0
72343S_FOWN_36,0
72343S_FOWN_37,1
72343S_FOWN_38,1
72343S_FOWN_39,0
72343S_FOWN_40,0
72343S_FOWN_41,0
72343S_FOWN_42,0
72392S_PEACH_36,1
72392S_PEACH_37,2
72392S_PEACH_38,0
72392S_PEACH_39,0
72392S_PEACH_40,0
72392S_PEACH_41,0
72392S_PEACH_42,0
72411S_SILVER_36,0
72411S_SILVER_37,1
72411S_SILVER_38,2
72411S_SILVER_39,2
72411S_SILVER_40,1
72411S_SILVER_41,0
72422S_GOLDEN_36,0
72422S_GOLDEN_37,1
72422S_GOLDEN_38,2
72422S_GOLDEN_39,2
72422S_GOLDEN_40,5
72422S_GOLDEN_41,1
72422S_GOLDEN_42,0
72424S_FOWN_36,0
72424S_FOWN_37,2
72424S_FOWN_38,2
72424S_FOWN_39,3
72424S_FOWN_40,2
72424S_FOWN_41,1
72435S_BLACK_36,0
72435S_BLACK_37,3
72435S_BLACK_38,5
72435S_BLACK_39,4
72435S_BLACK_40,6
72435S_BLACK_41,2
72435S_BLACK_42,0
72445S_FOWN_36,0
72445S_FOWN_37,1
72445S_FOWN_38,2
72445S_FOWN_39,0
72445S_FOWN_40,0
72445S_FOWN_41,0
72445S_FOWN_42,0
34652S_BROWN_35,0
34652S_FOWN_35,0
34652S_BLACK_36,0
34652S_BROWN_36,0
34652S_FOWN_36,0
34652S_MAHROON_36,0
34652S_BLACK_37,0
34652S_BROWN_37,0
34652S_FOWN_37,0
34652S_MAHROON_37,0
34652S_BLACK_38,0
34652S_BROWN_38,0
34652S_FOWN_38,0
34652S_MAHROON_38,0
34652S_BLACK_39,0
34652S_BROWN_39,0
34652S_FOWN_39,0
34652S_MAHROON_39,0
34652S_BLACK_40,0
34652S_BROWN_40,0
34652S_FOWN_40,0
34652S_MAHROON_40,0
34652S_BLACK_41,0
34652S_BROWN_41,0
34652S_FOWN_41,0
34652S_MAHROON_41,0
34652S_BLACK_42,0
34652S_BROWN_42,0
34652S_FOWN_42,0
34652S_MAHROON_42,0
34652S_BLACK_43,0
34652S_BROWN_43,0
34652S_FOWN_43,0
34652S_MAHROON_43,0
34972S_BLACK_36,0
34972S_BROWN_36,0
34972S_GOLDEN_36,0
34972S_GRAY_36,0
34972S_PEACH_36,0
34972S_BLACK_37,0
34972S_BROWN_37,0
34972S_GOLDEN_37,0
34972S_GRAY_37,0
34972S_PEACH_37,0
34972S_BLACK_38,0
34972S_BROWN_38,0
34972S_GOLDEN_38,0
34972S_GRAY_38,0
34972S_PEACH_38,0
34972S_BLACK_39,0
34972S_BROWN_39,0
34972S_GOLDEN_39,0
34972S_GRAY_39,0
34972S_PEACH_39,0
34972S_BLACK_40,0
34972S_BROWN_40,0
34972S_GOLDEN_40,0
34972S_GRAY_40,0
34972S_PEACH_40,0
34972S_BLACK_41,0
34972S_BROWN_41,1
34972S_GOLDEN_41,0
34972S_GRAY_41,0
34972S_PEACH_41,0
34972S_BLACK_42,0
34972S_BROWN_42,0
34972S_GOLDEN_42,0
34972S_GRAY_42,0
34972S_PEACH_42,0
34972S_BLACK_43,0
34972S_BROWN_43,0
34972S_GOLDEN_43,0
34972S_GRAY_43,0
34972S_PEACH_43,0
35046S_BROWN_36,0
35046S_BROWN_37,0
35046S_BROWN_38,0
35046S_BROWN_39,0
35046S_BROWN_40,0
35046S_BROWN_41,0
35046S_BROWN_42,0
35046S_BROWN_43,0
35048S_BLACK_36,0
35048S_BROWN_36,0
35048S_BLACK_37,0
35048S_BROWN_37,0
35048S_BLACK_38,0
35048S_BROWN_38,0
35048S_BLACK_39,0
35048S_BROWN_39,0
35048S_BLACK_40,0
35048S_BROWN_40,0
35048S_BLACK_41,0
35048S_BROWN_41,0
35048S_BLACK_42,0
35048S_BROWN_42,0
35048S_BLACK_43,0
35048S_BROWN_43,0
35038S_GRAY_36,0
35038S_GRAY_37,0
35038S_GRAY_38,0
35038S_GRAY_39,0
35038S_GRAY_40,0
35038S_GRAY_41,0
35038S_GRAY_42,0
35038S_GRAY_43,0
35084S_BROWN_36,0
35084S_BROWN_37,0
35084S_BROWN_38,0
35084S_BROWN_39,0
35084S_BROWN_40,0
35084S_BROWN_41,0
35084S_BROWN_42,0
35084S_BROWN_43,0
34979S_BROWN_36,1
34979S_GOLDEN_36,0
34979S_PEACH_36,0
34979S_BROWN_37,0
34979S_GOLDEN_37,0
34979S_PEACH_37,0
34979S_BROWN_38,0
34979S_GOLDEN_38,0
34979S_PEACH_38,0
34979S_BROWN_39,0
34979S_GOLDEN_39,0
34979S_PEACH_39,0
34979S_BROWN_40,3
34979S_GOLDEN_40,0
34979S_PEACH_40,0
34979S_BROWN_41,0
34979S_GOLDEN_41,0
34979S_PEACH_41,0
34979S_BROWN_42,0
34979S_GOLDEN_42,0
34979S_PEACH_42,0
34979S_BROWN_43,0
34979S_GOLDEN_43,0
34979S_PEACH_43,0
34980S_BLACK_36,0
34980S_BROWN_36,0
34980S_GOLDEN_36,0
34980S_GRAY_36,0
34980S_PEACH_36,0
34980S_BLACK_37,0
34980S_BROWN_37,0
34980S_GOLDEN_37,0
34980S_GRAY_37,0
34980S_PEACH_37,0
34980S_BLACK_38,0
34980S_BROWN_38,0
34980S_GOLDEN_38,0
34980S_GRAY_38,0
34980S_PEACH_38,0
34980S_BLACK_39,0
34980S_BROWN_39,0
34980S_GOLDEN_39,0
34980S_GRAY_39,0
34980S_PEACH_39,0
34980S_BLACK_40,0
34980S_BROWN_40,0
34980S_GOLDEN_40,0
34980S_GRAY_40,0
34980S_PEACH_40,0
34980S_BLACK_41,0
34980S_BROWN_41,0
34980S_GOLDEN_41,0
34980S_GRAY_41,0
34980S_PEACH_41,0
34980S_BLACK_42,0
34980S_BROWN_42,0
34980S_GOLDEN_42,0
34980S_GRAY_42,0
34980S_PEACH_42,0
34980S_BLACK_43,0
34980S_BROWN_43,0
34980S_GOLDEN_43,0
34980S_GRAY_43,0
34980S_PEACH_43,0
34966S_BROWN_36,0
34966S_GOLDEN_36,0
34966S_GRAY_36,0
34966S_PEACH_36,0
34966S_BROWN_37,0
34966S_GOLDEN_37,0
34966S_GRAY_37,0
34966S_PEACH_37,0
34966S_BROWN_38,0
34966S_GOLDEN_38,0
34966S_GRAY_38,0
34966S_PEACH_38,0
34966S_BROWN_39,0
34966S_GOLDEN_39,0
34966S_GRAY_39,0
34966S_PEACH_39,0
34966S_BROWN_40,0
34966S_GOLDEN_40,0
34966S_GRAY_40,0
34966S_PEACH_40,0
34966S_BROWN_41,0
34966S_GOLDEN_41,0
34966S_GRAY_41,0
34966S_PEACH_41,0
34966S_BROWN_42,0
34966S_GOLDEN_42,0
34966S_GRAY_42,0
34966S_PEACH_42,0
34966S_BROWN_43,0
34966S_GOLDEN_43,0
34966S_GRAY_43,0
34966S_PEACH_43,0
34968S_BROWN_36,0
34968S_GOLDEN_36,0
34968S_GRAY_36,0
34968S_PEACH_36,0
34968S_BROWN_37,0
34968S_GOLDEN_37,0
34968S_GRAY_37,0
34968S_PEACH_37,0
34968S_BROWN_38,0
34968S_GOLDEN_38,0
34968S_GRAY_38,0
34968S_PEACH_38,0
34968S_BROWN_39,0
34968S_GOLDEN_39,0
34968S_GRAY_39,0
34968S_PEACH_39,0
34968S_BROWN_40,0
34968S_GOLDEN_40,0
34968S_GRAY_40,0
34968S_PEACH_40,0
34968S_BROWN_41,0
34968S_GOLDEN_41,0
34968S_GRAY_41,0
34968S_PEACH_41,0
34968S_BROWN_42,0
34968S_GOLDEN_42,0
34968S_GRAY_42,0
34968S_PEACH_42,0
34968S_BROWN_43,0
34968S_GOLDEN_43,0
34968S_GRAY_43,0
34968S_PEACH_43,0
34938S_BROWN_36,0
34938S_GOLDEN_36,0
34938S_SILVER_36,0
34938S_BROWN_37,0
34938S_GOLDEN_37,0
34938S_SILVER_37,0
34938S_BROWN_38,0
34938S_GOLDEN_38,0
34938S_SILVER_38,0
34938S_BROWN_39,0
34938S_GOLDEN_39,0
34938S_SILVER_39,0
34938S_BROWN_40,0
34938S_GOLDEN_40,0
34938S_SILVER_40,0
34938S_BROWN_41,0
34938S_GOLDEN_41,0
34938S_SILVER_41,0
34938S_BROWN_42,0
34938S_GOLDEN_42,0
34938S_SILVER_42,0
34938S_BROWN_43,0
34938S_GOLDEN_43,0
34938S_SILVER_43,0
34943S_BROWN_36,0
34943S_FOWN_36,0
34943S_WHITE_36,0
34943S_BROWN_37,0
34943S_FOWN_37,0
34943S_WHITE_37,0
34943S_BROWN_38,1
34943S_FOWN_38,0
34943S_WHITE_38,0
34943S_BROWN_39,0
34943S_FOWN_39,0
34943S_WHITE_39,0
34943S_BROWN_40,0
34943S_FOWN_40,0
34943S_WHITE_40,0
34943S_BROWN_41,0
34943S_FOWN_41,0
34943S_WHITE_41,1
34943S_BROWN_42,0
34943S_FOWN_42,0
34943S_WHITE_42,0
34943S_BROWN_43,0
34943S_FOWN_43,0
34943S_WHITE_43,0
34955S_GOLDEN_36,0
34955S_GRAY_36,0
34955S_PEACH_36,0
34955S_GOLDEN_37,0
34955S_GRAY_37,0
34955S_PEACH_37,0
34955S_GOLDEN_38,0
34955S_GRAY_38,0
34955S_PEACH_38,0
34955S_GOLDEN_39,0
34955S_GRAY_39,0
34955S_PEACH_39,0
34955S_GOLDEN_40,0
34955S_GRAY_40,0
34955S_PEACH_40,0
34955S_GOLDEN_41,0
34955S_GRAY_41,0
34955S_PEACH_41,0
34956S_BROWN_36,0
34956S_GOLDEN_36,0
34956S_PEACH_36,0
34956S_SILVER_36,0
34956S_BROWN_37,0
34956S_GOLDEN_37,0
34956S_PEACH_37,0
34956S_SILVER_37,0
34956S_BROWN_38,0
34956S_GOLDEN_38,0
34956S_PEACH_38,0
34956S_SILVER_38,0
34956S_BROWN_39,0
34956S_GOLDEN_39,0
34956S_PEACH_39,0
34956S_SILVER_39,0
34956S_BROWN_40,0
34956S_GOLDEN_40,0
34956S_PEACH_40,0
34956S_SILVER_40,0
34956S_BROWN_41,0
34956S_GOLDEN_41,0
34956S_PEACH_41,0
34956S_SILVER_41,0
34956S_BROWN_42,0
34956S_GOLDEN_42,0
34956S_PEACH_42,0
34956S_SILVER_42,0
34956S_BROWN_43,0
34956S_GOLDEN_43,0
34956S_PEACH_43,0
34956S_SILVER_43,0
35138S_BROWN_36,0
35138S_GOLDEN_36,0
35138S_PEACH_36,0
35138S_GOLDEN_37,0
35138S_PEACH_37,0
35138S_GOLDEN_38,0
35138S_PEACH_38,0
35138S_GOLDEN_39,0
35138S_PEACH_39,0
35138S_GOLDEN_40,0
35138S_PEACH_40,0
35138S_GOLDEN_41,0
35138S_PEACH_41,0
35138S_BROWN_42,0
35138S_GOLDEN_42,0
35138S_PEACH_42,0
35138S_GOLDEN_43,0
94915S_BEIGE_36,0
94915S_BLACK_36,0
94915S_BEIGE_37,0
94915S_BLACK_37,1
94915S_BEIGE_38,1
94915S_BLACK_38,0
94915S_BEIGE_39,0
94915S_BLACK_39,3
94915S_BEIGE_40,4
94915S_BLACK_40,1
94915S_BEIGE_41,1
94915S_BLACK_41,0
94915S_BEIGE_42,0
94915S_BLACK_42,0
94915S_BEIGE_43,0
94915S_BLACK_43,0
94918S_BLACK_36,0
94918S_BROWN_36,0
94918S_BLACK_37,0
94918S_BROWN_37,0
94918S_BLACK_38,0
94918S_BROWN_38,0
94918S_BLACK_39,0
94918S_BROWN_39,1
94918S_BLACK_40,2
94918S_BROWN_40,1
94918S_BLACK_41,1
94918S_BROWN_41,1
94918S_BLACK_42,0
94918S_BROWN_42,0
94918S_BLACK_43,0
94918S_BROWN_43,0
94919S_KHAKI_36,2
94919S_KHAKI_37,0
94919S_KHAKI_38,1
94919S_KHAKI_39,0
94919S_KHAKI_40,5
94919S_KHAKI_41,2
94919S_KHAKI_42,0
94919S_KHAKI_43,0
94883S_BLACK_36,2
94883S_BROWN_36,2
94883S_BLACK_37,0
94883S_BROWN_37,2
94883S_BLACK_38,0
94883S_BROWN_38,1
94883S_BLACK_39,1
94883S_BROWN_39,0
94883S_BLACK_40,0
94883S_BROWN_40,2
94883S_BLACK_41,0
94883S_BROWN_41,0
94883S_BLACK_42,0
94883S_BROWN_42,0
94883S_BLACK_43,0
94883S_BROWN_43,0
94892S_L/GOLDEN_36,0
94892S_SILVER_36,1
94892S_L/GOLDEN_37,0
94892S_SILVER_37,3
94892S_L/GOLDEN_38,1
94892S_SILVER_38,1
94892S_L/GOLDEN_39,1
94892S_SILVER_39,5
94892S_L/GOLDEN_40,1
94892S_SILVER_40,2
94892S_L/GOLDEN_41,0
94892S_SILVER_41,2
94892S_L/GOLDEN_42,0
94892S_SILVER_42,0
94892S_L/GOLDEN_43,0
94892S_SILVER_43,0
95045S_L/GOLDEN_36,0
95045S_L/GOLDEN_37,1
95045S_L/GOLDEN_38,0
95045S_L/GOLDEN_39,0
95045S_L/GOLDEN_40,0
95045S_L/GOLDEN_41,0
95045S_L/GOLDEN_42,0
95022S_BROWN_36,0
95022S_GOLDEN_36,0
95022S_BROWN_37,0
95022S_GOLDEN_37,0
95022S_BROWN_38,4
95022S_GOLDEN_38,4
95022S_BROWN_39,0
95022S_GOLDEN_39,0
95022S_BROWN_40,0
95022S_GOLDEN_40,0
95022S_BROWN_41,0
95022S_GOLDEN_41,0
94975S_CAMEL_36,1
94975S_WHITE_36,0
94975S_CAMEL_37,0
94975S_WHITE_37,3
94975S_CAMEL_38,0
94975S_WHITE_38,0
94975S_CAMEL_39,0
94975S_WHITE_39,0
94975S_CAMEL_40,0
94975S_WHITE_40,0
94975S_CAMEL_41,0
94975S_WHITE_41,0
94958S_BLACK_36,0
94958S_L/GOLDEN_36,0
94958S_BLACK_37,3
94958S_L/GOLDEN_37,0
94958S_BLACK_38,1
94958S_L/GOLDEN_38,0
94958S_BLACK_39,0
94958S_L/GOLDEN_39,0
94958S_BLACK_40,0
94958S_L/GOLDEN_40,0
94958S_BLACK_41,0
94958S_L/GOLDEN_41,0
94958S_BLACK_42,0
94958S_L/GOLDEN_42,0
94958S_BLACK_43,0
94958S_L/GOLDEN_43,0
94986S_BEIGE_36,0
94986S_BLACK_36,0
94986S_BEIGE_37,1
94986S_BLACK_37,1
94986S_BEIGE_38,0
94986S_BLACK_38,0
94986S_BEIGE_39,2
94986S_BLACK_39,0
94986S_BEIGE_40,0
94986S_BLACK_40,0
94986S_BEIGE_41,0
94986S_BLACK_41,0
94989S_BEIGE_36,0
94989S_BEIGE_37,0
94989S_NAVY_37,0
94989S_BEIGE_38,0
94989S_NAVY_38,0
94989S_BEIGE_39,0
94989S_NAVY_39,0
94989S_BEIGE_40,0
94989S_NAVY_40,1
94989S_BEIGE_41,0
94989S_NAVY_41,1
94991S_BEIGE_36,0
94991S_BLACK_36,1
94991S_BEIGE_37,1
94991S_BLACK_37,3
94991S_BEIGE_38,1
94991S_BLACK_38,0
94991S_BEIGE_39,4
94991S_BLACK_39,2
94991S_BEIGE_40,0
94991S_BLACK_40,2
94991S_BEIGE_41,0
94991S_BLACK_41,2
94996S_BLACK_36,0
94996S_BLACK_37,0
94996S_BLACK_38,0
94996S_BLACK_39,0
94996S_BLACK_40,0
94996S_BLACK_41,0
94999S_BEIGE_36,0
94999S_PINK_36,0
94999S_BEIGE_37,1
94999S_PINK_37,0
94999S_BEIGE_38,0
94999S_PINK_38,0
94999S_BEIGE_39,0
94999S_PINK_39,0
94999S_BEIGE_40,0
94999S_PINK_40,1
94999S_BEIGE_41,0
94999S_PINK_41,0
95001S_BEIGE_36,0
95001S_NAVY_36,0
95001S_BEIGE_37,0
95001S_NAVY_37,1
95001S_BEIGE_38,1
95001S_NAVY_38,0
95001S_BEIGE_39,2
95001S_NAVY_39,0
95001S_BEIGE_40,0
95001S_NAVY_40,0
95001S_BEIGE_41,0
95001S_NAVY_41,0
95003S_BEIGE_36,0
95003S_BLACK_36,0
95003S_BEIGE_37,1
95003S_BLACK_37,0
95003S_BEIGE_38,0
95003S_BLACK_38,0
95003S_BEIGE_39,0
95003S_BLACK_39,0
95003S_BEIGE_40,0
95003S_BLACK_40,0
95003S_BEIGE_41,0
95003S_BLACK_41,0
95007S_BLACK_36,1
95007S_BLACK_37,0
95007S_BLACK_38,0
95007S_BLACK_39,1
95007S_BLACK_40,2
95007S_BLACK_41,0
95008S_BEIGE_36,0
95008S_BLACK_36,0
95008S_BEIGE_37,0
95008S_BLACK_37,0
95008S_BEIGE_38,0
95008S_BLACK_38,0
95008S_BEIGE_39,0
95008S_BLACK_39,0
95008S_BEIGE_40,0
95008S_BLACK_40,0
95008S_BEIGE_41,0
95008S_BLACK_41,0
95012S_GUN_36,0
95012S_L/GOLDEN_36,0
95012S_GUN_37,0
95012S_L/GOLDEN_37,4
95012S_GUN_38,0
95012S_L/GOLDEN_38,3
95012S_GUN_39,1
95012S_L/GOLDEN_39,5
95012S_GUN_40,1
95012S_L/GOLDEN_40,5
95012S_GUN_41,0
95012S_L/GOLDEN_41,1
95093S_BLACK_36,0
95093S_BLACK_37,0
95093S_BLACK_38,3
95093S_BLACK_39,1
95093S_BLACK_40,0
95093S_BLACK_41,0
95093S_BLACK_42,0
95093S_BLACK_43,0
95061S_BLACK_36,0
95061S_BLACK_37,0
95061S_BLACK_38,0
95061S_BLACK_39,2
95061S_BLACK_40,2
95061S_BLACK_41,0
95061S_BLACK_42,0
95073S_NAVY_36,0
95073S_NAVY_37,0
95073S_NAVY_38,0
95073S_NAVY_39,0
95073S_NAVY_40,0
95073S_NAVY_41,2
95073S_NAVY_42,0
95074S_BEIGE_36,0
95074S_BEIGE_37,0
95074S_BEIGE_38,0
95074S_BEIGE_39,0
95074S_BEIGE_40,0
95074S_BEIGE_41,0
95074S_BEIGE_42,0
95186S_WHITE_36,0
95186S_WHITE_37,0
95186S_WHITE_38,0
95186S_WHITE_39,0
95186S_WHITE_40,0
95186S_WHITE_41,1
95186S_WHITE_42,0
95186S_WHITE_43,0
95187S_BLACK_36,0
95187S_BLACK_37,0
95187S_BLACK_38,0
95187S_BLACK_39,5
95187S_BLACK_40,6
95187S_BLACK_41,2
95187S_BLACK_42,0
95187S_BLACK_43,0
95210S_BLACK_36,0
95210S_BLACK_37,0
95210S_BLACK_38,0
95210S_BLACK_39,0
95210S_BLACK_40,0
95210S_BLACK_41,0
95211S_GOLDEN_36,0
95211S_GOLDEN_37,0
95211S_GOLDEN_38,1
95211S_GOLDEN_39,0
95211S_GOLDEN_40,0
95211S_GOLDEN_41,0
95237S_GOLDEN_36,0
95237S_GOLDEN_37,0
95237S_GOLDEN_38,0
95237S_GOLDEN_39,0
95237S_GOLDEN_40,0
95237S_GOLDEN_41,2
95261S_BEIGE_36,0
95261S_BEIGE_37,0
95261S_BEIGE_38,0
95261S_BEIGE_39,0
95261S_BEIGE_40,0
95261S_BEIGE_41,0
95276S_CAMEL_36,0
95276S_CAMEL_37,0
95276S_CAMEL_38,0
95276S_CAMEL_39,0
95276S_CAMEL_40,0
95276S_CAMEL_41,0
95361S_SILVER_36,0
95361S_SILVER_37,0
95361S_SILVER_38,0
95361S_SILVER_39,0
95361S_SILVER_40,2
95361S_SILVER_41,0
60989S_MAHROON_36,2
60989S_MAHROON_37,0
60989S_MAHROON_38,1
60989S_MAHROON_39,4
60989S_MAHROON_40,0
60989S_MAHROON_41,0
60989S_MAHROON_42,0
61003S_MAHROON_36,0
61003S_MAHROON_37,0
61003S_MAHROON_38,0
61003S_MAHROON_39,0
61003S_MAHROON_40,1
61003S_MAHROON_41,0
61003S_MAHROON_42,0
61060S_FOWN_36,0
61060S_FOWN_37,1
61060S_FOWN_38,0
61060S_FOWN_39,2
61060S_FOWN_40,0
61060S_FOWN_41,2
61060S_FOWN_42,0
61083S_BLACK_36,0
61083S_BLACK_37,0
61083S_BLACK_38,0
61083S_BLACK_39,2
61083S_BLACK_40,1
61083S_BLACK_41,0
61084S_MASTARD_36,0
61084S_MASTARD_37,0
61084S_MASTARD_38,0
61084S_MASTARD_39,2
61084S_MASTARD_40,0
61084S_MASTARD_41,0
61084S_MASTARD_42,0
61106S_BROWN_36,0
61106S_BROWN_37,0
61106S_BROWN_38,0
61106S_BROWN_39,2
61106S_BROWN_40,1
61106S_BROWN_41,1
61106S_BROWN_42,0
93840S_BEIGE_35,0
93840S_BLACK_35,0
93840S_BROWN_35,0
93840S_BEIGE_36,0
93840S_BLACK_36,0
93840S_BROWN_36,0
93840S_BEIGE_37,0
93840S_BLACK_37,0
93840S_BROWN_37,0
93840S_BEIGE_38,0
93840S_BLACK_38,0
93840S_BROWN_38,0
93840S_BEIGE_39,0
93840S_BLACK_39,0
93840S_BROWN_39,0
93840S_BEIGE_40,0
93840S_BLACK_40,0
93840S_BROWN_40,0
93840S_BEIGE_41,0
93840S_BLACK_41,0
93840S_BROWN_41,0
93840S_BEIGE_42,0
93840S_BLACK_42,0
93840S_BROWN_42,0
93840S_BEIGE_43,0
93840S_BLACK_43,0
93840S_BROWN_43,0
93869S_BEIGE_35,0
93869S_PINK_35,0
93869S_BEIGE_36,0
93869S_BLACK_36,0
93869S_PINK_36,0
93869S_WHITE_36,0
93869S_BEIGE_37,0
93869S_BLACK_37,0
93869S_PINK_37,0
93869S_WHITE_37,0
93869S_BEIGE_38,0
93869S_BLACK_38,0
93869S_PINK_38,0
93869S_WHITE_38,0
93869S_BEIGE_39,0
93869S_BLACK_39,0
93869S_PINK_39,0
93869S_WHITE_39,0
93869S_BEIGE_40,0
93869S_BLACK_40,0
93869S_PINK_40,0
93869S_WHITE_40,0
93869S_BEIGE_41,0
93869S_BLACK_41,0
93869S_PINK_41,0
93869S_WHITE_41,0
93869S_BEIGE_42,0
93869S_PINK_42,0
93869S_BEIGE_43,0
93869S_PINK_43,0
35509S_GRAY_36,0
35509S_GRAY_37,0
35509S_GRAY_38,0
35509S_GRAY_39,0
35509S_GRAY_40,0
35509S_GRAY_41,0
35509S_GRAY_42,1
35448S_BLACK_36,0
35448S_BLACK_37,0
35448S_BLACK_38,0
35448S_BLACK_39,0
35448S_BLACK_40,0
35448S_BLACK_41,0
35448S_BLACK_42,0
35448S_BLACK_43,0
35425S_FOWN_36,0
35425S_WHITE_36,0
35425S_FOWN_37,0
35425S_WHITE_37,0
35425S_FOWN_38,0
35425S_WHITE_38,0
35425S_FOWN_39,0
35425S_WHITE_39,0
35425S_FOWN_40,0
35425S_WHITE_40,0
35425S_FOWN_41,0
35425S_WHITE_41,0
35425S_FOWN_42,0
35425S_WHITE_42,0
35425S_FOWN_43,0
35425S_WHITE_43,0
35436S_MAHROON_36,0
35436S_MAHROON_37,0
35436S_MAHROON_38,0
35436S_MAHROON_39,3
35436S_MAHROON_40,1
35436S_MAHROON_41,0
35436S_MAHROON_42,0
35436S_MAHROON_43,0
35204S_WHITE_36,0
35204S_WHITE_37,0
35204S_WHITE_38,0
35204S_WHITE_39,0
35204S_WHITE_40,0
35204S_WHITE_41,0
35204S_WHITE_42,0
35204S_WHITE_43,0
35350S_PEACH_36,1
35350S_PEACH_37,0
35350S_PEACH_38,3
35350S_PEACH_39,2
35350S_PEACH_40,3
35350S_PEACH_41,2
35350S_PEACH_42,2
35350S_PEACH_43,0
35406S_FOWN_36,0
35406S_WHITE_36,1
35406S_FOWN_37,0
35406S_WHITE_37,0
35406S_FOWN_38,0
35406S_WHITE_38,0
35406S_FOWN_39,0
35406S_WHITE_39,0
35406S_FOWN_40,0
35406S_WHITE_40,0
35406S_FOWN_41,0
35399S_GOLDEN_36,1
35399S_GRAY_36,2
35399S_GOLDEN_37,0
35399S_GRAY_37,0
35399S_GOLDEN_38,0
35399S_GRAY_38,1
35399S_GOLDEN_39,0
35399S_GRAY_39,0
35399S_GOLDEN_40,0
35399S_GRAY_40,0
35399S_GOLDEN_41,0
35399S_GRAY_41,0
35399S_GOLDEN_42,0
35399S_GRAY_42,0
35399S_GOLDEN_43,0
35399S_GRAY_43,0
35368S_GRAY_36,1
35368S_GRAY_37,0
35368S_GRAY_38,1
35368S_GRAY_39,0
35368S_GRAY_40,0
35368S_GRAY_41,0
35368S_GRAY_42,0
35368S_GRAY_43,0
35373S_BROWN_36,0
35373S_FOWN_36,0
35373S_BROWN_37,0
35373S_FOWN_37,0
35373S_BROWN_38,0
35373S_FOWN_38,0
35373S_BROWN_39,0
35373S_FOWN_39,0
35373S_BROWN_40,0
35373S_FOWN_40,0
35373S_BROWN_41,0
35373S_FOWN_41,0
35373S_BROWN_42,0
35373S_FOWN_42,0
35373S_BROWN_43,0
35373S_FOWN_43,0
34198S_WHITE_36,0
34198S_WHITE_37,0
34198S_WHITE_38,0
34198S_WHITE_39,0
34198S_WHITE_40,0
34198S_WHITE_41,0
34198S_WHITE_42,0
34198S_WHITE_43,0
60926S_GOLDEN_36,0
60926S_GRAY_36,0
60926S_PEACH_36,0
60926S_GOLDEN_37,0
60926S_GRAY_37,0
60926S_PEACH_37,0
60926S_GOLDEN_38,0
60926S_GRAY_38,0
60926S_PEACH_38,0
60926S_GOLDEN_39,0
60926S_GRAY_39,0
60926S_PEACH_39,0
60926S_GOLDEN_40,1
60926S_GRAY_40,0
60926S_PEACH_40,0
60926S_GOLDEN_41,0
60926S_GRAY_41,0
60926S_PEACH_41,0
60926S_GOLDEN_42,0
60926S_GRAY_42,0
60926S_PEACH_42,0
60942S_FOWN_36,0
60942S_FOWN_37,0
60942S_FOWN_38,0
60942S_FOWN_39,0
60942S_FOWN_40,0
60942S_FOWN_41,0
35543S_BLACK_36,0
35543S_BLACK_37,0
35543S_BLACK_38,0
35543S_BLACK_39,1
35543S_BLACK_40,0
35543S_BLACK_41,1
35543S_BLACK_42,0
35543S_BLACK_43,0
35666S_BLACK_36,1
35666S_BLACK_37,0
35666S_BLACK_39,0
35666S_BLACK_40,0
35666S_BLACK_41,0
35666S_BLACK_42,2
35666S_BLACK_43,0
72305S_FOWN_36,0
72305S_FOWN_37,0
72305S_FOWN_38,0
72305S_FOWN_39,0
72305S_FOWN_40,0
72305S_FOWN_41,0
72305S_FOWN_42,0
72305S_FOWN_43,0
72293S_RED_36,0
72293S_RED_37,0
72293S_RED_38,0
72293S_RED_39,0
72293S_RED_40,0
72293S_RED_41,0
72293S_RED_42,0
72293S_RED_43,0
72234S_PEACH_36,0
72234S_PEACH_37,0
72234S_PEACH_38,0
72234S_PEACH_39,0
72234S_PEACH_40,1
72234S_PEACH_41,0
72234S_PEACH_42,0
94874S_BLACK_36,0
94874S_KHAKI_36,0
94874S_BLACK_37,0
94874S_KHAKI_37,0
94874S_BLACK_38,0
94874S_KHAKI_38,0
94874S_BLACK_39,0
94874S_KHAKI_39,2
94874S_BLACK_40,1
94874S_KHAKI_40,0
94874S_BLACK_41,3
94874S_KHAKI_41,0
94874S_BLACK_42,0
94874S_KHAKI_42,0
94874S_BLACK_43,0
94874S_KHAKI_43,0
94876S_BLACK_36,1
94876S_COFFEE_36,0
94876S_BLACK_37,1
94876S_COFFEE_37,0
94876S_BLACK_38,0
94876S_COFFEE_38,0
94876S_BLACK_39,0
94876S_COFFEE_39,0
94876S_BLACK_40,0
94876S_COFFEE_40,1
94876S_BLACK_41,0
94876S_COFFEE_41,0
94876S_BLACK_42,0
94876S_COFFEE_42,0
94876S_BLACK_43,0
94876S_COFFEE_43,0
94877S_BLACK_36,0
94877S_NAVY_36,0
94877S_BLACK_37,0
94877S_NAVY_37,0
94877S_BLACK_38,0
94877S_NAVY_38,0
94877S_BLACK_39,0
94877S_NAVY_39,0
94877S_BLACK_40,0
94877S_NAVY_40,0
94877S_BLACK_41,0
94877S_NAVY_41,0
94877S_BLACK_42,0
94877S_NAVY_42,0
94877S_BLACK_43,0
94877S_NAVY_43,0
94878S_BLACK_36,0
94878S_CAMEL_36,1
94878S_BLACK_37,1
94878S_CAMEL_37,0
94878S_BLACK_38,0
94878S_CAMEL_38,0
94878S_BLACK_39,0
94878S_CAMEL_39,1
94878S_BLACK_40,0
94878S_CAMEL_40,0
94878S_BLACK_41,0
94878S_CAMEL_41,0
94878S_BLACK_42,0
94878S_CAMEL_42,0
94878S_BLACK_43,0
94878S_CAMEL_43,0
94879S_BLACK_36,0
94879S_CAMEL_36,0
94879S_BLACK_37,0
94879S_CAMEL_37,0
94879S_BLACK_38,0
94879S_CAMEL_38,0
94879S_BLACK_39,0
94879S_CAMEL_39,0
94879S_BLACK_40,0
94879S_CAMEL_40,0
94879S_BLACK_41,0
94879S_CAMEL_41,0
94879S_BLACK_42,0
94879S_CAMEL_42,0
94879S_BLACK_43,0
94879S_CAMEL_43,0
72417S_BLACK_36,0
72417S_BLACK_37,0
72417S_BLACK_38,0
72417S_BLACK_39,0
72417S_BLACK_40,0
72417S_BLACK_41,0
72417S_BLACK_42,0
72330S_BROWN_36,0
72330S_BROWN_37,0
72330S_BROWN_38,0
72330S_BROWN_39,3
72330S_BROWN_40,0
72330S_BROWN_41,0
72330S_BROWN_42,0
94448S_BROWN_36,0
94448S_BROWN_37,0
94448S_BROWN_38,0
94448S_BROWN_39,0
94448S_BROWN_40,0
94448S_BROWN_41,0
94448S_BROWN_42,0
94618S_COFFEE_36,0
94618S_FOWN_36,0
94618S_COFFEE_37,0
94618S_FOWN_37,0
94618S_COFFEE_38,0
94618S_FOWN_38,0
94618S_COFFEE_39,0
94618S_FOWN_39,0
94618S_COFFEE_40,0
94618S_FOWN_40,0
94618S_COFFEE_41,0
94618S_FOWN_41,0
94619S_COFFEE_36,0
94619S_COFFEE_37,0
94619S_COFFEE_38,0
94619S_COFFEE_39,0
94619S_COFFEE_40,0
94619S_COFFEE_41,0
94620S_FOWN_36,0
94620S_FOWN_37,0
94620S_FOWN_38,0
94620S_FOWN_39,0
94620S_FOWN_40,0
94620S_FOWN_41,0
94621S_COFFEE_36,0
94621S_FOWN_36,0
94621S_COFFEE_37,0
94621S_FOWN_37,0
94621S_COFFEE_38,0
94621S_FOWN_38,0
94621S_COFFEE_39,0
94621S_FOWN_39,0
94621S_COFFEE_40,0
94621S_FOWN_40,0
94621S_COFFEE_41,0
94621S_FOWN_41,0
94623S_BEIGE_36,0
94623S_GRAY_36,0
94623S_BEIGE_37,0
94623S_GRAY_37,0
94623S_BEIGE_38,0
94623S_GRAY_38,0
94623S_BEIGE_39,0
94623S_GRAY_39,0
94623S_BEIGE_40,0
94623S_GRAY_40,0
94623S_BEIGE_41,0
94623S_GRAY_41,0
94626S_COFFEE_36,0
94626S_KHAKI_36,0
94626S_COFFEE_37,1
94626S_KHAKI_37,0
94626S_COFFEE_38,0
94626S_KHAKI_38,0
94626S_COFFEE_39,0
94626S_KHAKI_39,0
94626S_COFFEE_40,0
94626S_KHAKI_40,0
94626S_COFFEE_41,0
94626S_KHAKI_41,0
94629S_CAMEL_36,0
94629S_KHAKI_36,0
94629S_CAMEL_37,0
94629S_KHAKI_37,0
94629S_CAMEL_38,0
94629S_KHAKI_38,0
94629S_CAMEL_39,0
94629S_KHAKI_39,0
94629S_CAMEL_40,0
94629S_KHAKI_40,0
94629S_CAMEL_41,0
94629S_KHAKI_41,0
94650S_BRONZE_36,1
94650S_L/GOLDEN_36,1
94650S_BRONZE_37,0
94650S_L/GOLDEN_37,0
94650S_BRONZE_38,2
94650S_L/GOLDEN_38,0
94650S_BRONZE_39,0
94650S_L/GOLDEN_39,0
94650S_BRONZE_40,0
94650S_L/GOLDEN_40,0
94650S_BRONZE_41,0
94650S_L/GOLDEN_41,0
94651S_L/GOLDEN_36,0
94651S_L/GOLDEN_37,0
94651S_L/GOLDEN_38,0
94651S_L/GOLDEN_39,1
94651S_L/GOLDEN_40,0
94651S_L/GOLDEN_41,0
94652S_BLACK_36,0
94652S_NAVY_36,0
94652S_BLACK_37,0
94652S_NAVY_37,0
94652S_BLACK_38,0
94652S_NAVY_38,0
94652S_BLACK_39,0
94652S_NAVY_39,0
94652S_BLACK_40,0
94652S_NAVY_40,0
94652S_BLACK_41,0
94652S_NAVY_41,0
94653S_MAHROON_36,0
94653S_MAHROON_37,0
94653S_MAHROON_38,0
94653S_MAHROON_39,0
94653S_MAHROON_40,0
94653S_MAHROON_41,0
94654S_CHAMPAGNE_36,0
94654S_SILVER_36,0
94654S_CHAMPAGNE_37,1
94654S_SILVER_37,1
94654S_CHAMPAGNE_38,0
94654S_SILVER_38,0
94654S_CHAMPAGNE_39,1
94654S_SILVER_39,0
94654S_SILVER_40,0
94654S_CHAMPAGNE_41,0
94661S_BEIGE_36,0
94661S_BLACK_36,0
94661S_BLACK_37,0
94661S_BLACK_38,0
94661S_BLACK_39,1
94661S_BLACK_40,2
94661S_BLACK_41,0
94663S_BLACK_36,0
94663S_L/GOLDEN_36,0
94663S_BLACK_37,0
94663S_L/GOLDEN_37,0
94663S_BLACK_38,0
94663S_L/GOLDEN_38,0
94663S_BLACK_39,0
94663S_L/GOLDEN_39,0
94663S_BLACK_40,0
94663S_L/GOLDEN_40,0
94663S_BLACK_41,0
94663S_L/GOLDEN_41,0
94664S_CHAMPAGNE_36,0
94664S_PEWTER_36,0
94664S_CHAMPAGNE_37,0
94664S_PEWTER_37,0
94664S_CHAMPAGNE_38,0
94664S_PEWTER_38,0
94664S_CHAMPAGNE_39,0
94664S_PEWTER_39,0
94664S_CHAMPAGNE_40,0
94664S_PEWTER_40,0
94664S_CHAMPAGNE_41,0
94664S_PEWTER_41,0
94665S_BEIGE_36,0
94665S_BLACK_36,0
94665S_BEIGE_37,1
94665S_BLACK_37,0
94665S_BEIGE_38,2
94665S_BLACK_38,0
94665S_BEIGE_39,0
94665S_BLACK_39,0
94665S_BEIGE_40,1
94665S_BLACK_40,0
94665S_BEIGE_41,0
94665S_BLACK_41,0
94666S_BEIGE_36,0
94666S_BLACK_36,0
94666S_BEIGE_37,1
94666S_BLACK_37,0
94666S_BEIGE_38,3
94666S_BLACK_38,0
94666S_BEIGE_39,0
94666S_BLACK_39,0
94666S_BEIGE_40,0
94666S_BLACK_40,0
94666S_BEIGE_41,0
94666S_BLACK_41,0
94667S_BLACK_36,0
94667S_MASTARD_36,0
94667S_BLACK_37,0
94667S_MASTARD_37,1
94667S_BLACK_38,2
94667S_MASTARD_38,4
94667S_BLACK_39,0
94667S_MASTARD_39,1
94667S_BLACK_40,5
94667S_MASTARD_40,2
94667S_BLACK_41,0
94667S_MASTARD_41,0
94671S_BRONZE_36,0
94671S_PEWTER_36,0
94671S_BRONZE_37,0
94671S_PEWTER_37,0
94671S_BRONZE_38,0
94671S_PEWTER_38,3
94671S_BRONZE_39,0
94671S_PEWTER_39,2
94671S_BRONZE_40,0
94671S_PEWTER_40,1
94671S_BRONZE_41,0
94671S_PEWTER_41,0
94674S_BLACK_36,0
94674S_OFF/WHITE_36,0
94674S_BLACK_37,0
94674S_OFF/WHITE_37,0
94674S_BLACK_38,0
94674S_OFF/WHITE_38,0
94674S_BLACK_39,0
94674S_OFF/WHITE_39,0
94674S_BLACK_40,0
94674S_OFF/WHITE_40,0
94674S_BLACK_41,0
94674S_OFF/WHITE_41,0
94677S_BRONZE_36,0
94677S_CHAMPAGNE_36,0
94677S_L/GOLDEN_36,0
94677S_BRONZE_37,0
94677S_CHAMPAGNE_37,0
94677S_L/GOLDEN_37,0
94677S_BRONZE_38,0
94677S_CHAMPAGNE_38,0
94677S_L/GOLDEN_38,0
94677S_BRONZE_39,0
94677S_CHAMPAGNE_39,1
94677S_L/GOLDEN_39,1
94677S_BRONZE_40,0
94677S_CHAMPAGNE_40,2
94677S_L/GOLDEN_40,4
94677S_BRONZE_41,0
94677S_CHAMPAGNE_41,0
94677S_L/GOLDEN_41,0
94498S_WHITE_36,0
94498S_WHITE_37,0
94498S_WHITE_38,0
94498S_WHITE_39,0
94498S_WHITE_40,0
94498S_WHITE_41,0
94760S_BLACK_36,0
94760S_NAVY_36,0
94760S_BLACK_37,0
94760S_NAVY_37,0
94760S_OFF/WHITE_37,0
94760S_NAVY_38,0
94760S_NAVY_39,0
94760S_NAVY_40,0
94760S_NAVY_41,0
94841S_WHITE_36,0
94841S_WHITE_37,0
94841S_WHITE_38,2
94841S_WHITE_39,0
94841S_WHITE_40,0
94841S_WHITE_41,0
94867S_BEIGE_36,0
94867S_BLACK_36,1
94867S_BEIGE_37,0
94867S_BLACK_37,4
94867S_BEIGE_38,0
94867S_BLACK_38,3
94867S_BEIGE_39,0
94867S_BLACK_39,0
94867S_BEIGE_40,0
94867S_BLACK_40,0
94867S_BEIGE_41,0
94867S_BLACK_41,1
94867S_BEIGE_42,0
94867S_BLACK_42,0
94867S_BEIGE_43,0
94867S_BLACK_43,0
94680S_BEIGE_36,1
94680S_RED_36,1
94680S_BEIGE_37,1
94680S_RED_37,1
94680S_BEIGE_38,2
94680S_RED_38,3
94680S_BEIGE_39,0
94680S_RED_39,3
94680S_BEIGE_40,0
94680S_RED_40,0
94680S_BEIGE_41,0
94680S_RED_41,0
94681S_BLACK/SILVER_36,1
94681S_BLACK/SILVER_37,0
94681S_BLACK/SILVER_38,0
94681S_BLACK/SILVER_39,0
94681S_BLACK/SILVER_40,0
94681S_BLACK/SILVER_41,0
94682S_BEIGE_37,0
94682S_GRAY_37,0
94682S_BEIGE_38,6
94682S_GRAY_38,0
94682S_BEIGE_39,1
94682S_GRAY_39,0
94682S_BEIGE_40,0
94682S_GRAY_40,0
94682S_BEIGE_41,0
94682S_GRAY_41,0
94686S_L/BROWN_36,0
94686S_NAVY_36,0
94686S_L/BROWN_37,0
94686S_NAVY_37,0
94686S_L/BROWN_38,0
94686S_NAVY_38,0
94686S_L/BROWN_39,0
94686S_NAVY_39,0
94686S_L/BROWN_40,0
94686S_NAVY_40,0
94686S_L/BROWN_41,0
94686S_NAVY_41,0
94687S_GRAY_36,0
94687S_L/GOLDEN_36,0
94687S_GRAY_37,0
94687S_L/GOLDEN_37,1
94687S_GRAY_38,0
94687S_L/GOLDEN_38,2
94687S_GRAY_39,0
94687S_L/GOLDEN_39,3
94687S_GRAY_40,3
94687S_L/GOLDEN_40,1
94687S_GRAY_41,0
94687S_L/GOLDEN_41,0
94688S_BEIGE_36,1
94688S_BROWN_36,0
94688S_BEIGE_37,0
94688S_BROWN_37,0
94688S_BEIGE_38,2
94688S_BROWN_38,0
94688S_BEIGE_39,1
94688S_BROWN_39,0
94688S_BEIGE_40,1
94688S_BROWN_40,0
94688S_BEIGE_41,0
94688S_BROWN_41,0
94656S_BRONZE_36,0
94656S_BRONZE_37,0
94656S_BRONZE_38,0
94656S_BRONZE_39,0
94656S_BRONZE_40,0
94656S_BRONZE_41,0
94657S_L/GOLDEN_36,0
94657S_CHAMPAGNE_37,0
94657S_L/GOLDEN_37,0
94657S_L/GOLDEN_39,1
94657S_L/GOLDEN_40,0
94657S_L/GOLDEN_41,0
94658S_KHAKI_36,0
94658S_L/GOLDEN_36,0
94658S_KHAKI_37,0
94658S_L/GOLDEN_37,0
94658S_KHAKI_38,0
94658S_L/GOLDEN_38,0
94658S_KHAKI_39,3
94658S_L/GOLDEN_39,0
94658S_KHAKI_40,0
94658S_L/GOLDEN_40,0
94658S_KHAKI_41,0
94658S_L/GOLDEN_41,0
94712S_BEIGE_36,0
94712S_NAVY_36,0
94712S_BEIGE_37,0
94712S_NAVY_37,0
94712S_BEIGE_38,0
94712S_NAVY_38,0
94712S_BEIGE_39,0
94712S_BEIGE_40,0
94712S_NAVY_40,0
94712S_BEIGE_41,0
94712S_NAVY_41,0
94712S_BEIGE_42,0
94712S_NAVY_42,0
94712S_BEIGE_43,0
94712S_NAVY_43,0
94715S_BLACK_36,0
94715S_BROWN_36,1
94715S_BLACK_37,2
94715S_BROWN_37,0
94715S_BLACK_38,3
94715S_BROWN_38,0
94715S_BLACK_39,1
94715S_BROWN_39,1
94715S_BLACK_40,1
94715S_BROWN_40,0
94715S_BLACK_41,0
94715S_BROWN_41,0
94715S_BLACK_42,0
94715S_BROWN_42,0
94715S_BLACK_43,0
94715S_BROWN_43,0
94722S_BLACK_36,0
94722S_GOLDEN_36,0
94722S_BLACK_37,0
94722S_GOLDEN_37,0
94722S_BLACK_38,1
94722S_GOLDEN_38,0
94722S_BLACK_39,0
94722S_GOLDEN_39,0
94722S_BLACK_40,0
94722S_GOLDEN_40,0
94722S_BLACK_41,0
94722S_GOLDEN_41,0
94722S_BLACK_42,0
94722S_GOLDEN_42,0
94722S_BLACK_43,0
94722S_GOLDEN_43,0
94724S_BLACK_36,0
94724S_BLACK_37,2
94724S_GOLDEN_37,2
94724S_BLACK_38,1
94724S_GOLDEN_38,0
94724S_BLACK_39,0
94724S_GOLDEN_39,3
94724S_BLACK_40,0
94724S_GOLDEN_40,0
94724S_BLACK_41,0
94724S_GOLDEN_41,0
94724S_BLACK_42,0
94724S_GOLDEN_42,0
94724S_BLACK_43,0
94724S_GOLDEN_43,0
94732S_GRAY_36,0
94732S_L/GOLDEN_36,0
94732S_GRAY_37,0
94732S_L/GOLDEN_37,0
94732S_GRAY_38,0
94732S_L/GOLDEN_38,0
94732S_GRAY_39,0
94732S_L/GOLDEN_39,0
94732S_GRAY_40,0
94732S_L/GOLDEN_40,0
94732S_GRAY_41,0
94732S_L/GOLDEN_41,0
94733S_CHAMPAGNE_36,0
94733S_L/GOLDEN_36,0
94733S_CHAMPAGNE_37,0
94733S_L/GOLDEN_37,0
94733S_CHAMPAGNE_38,0
94733S_L/GOLDEN_38,0
94733S_CHAMPAGNE_39,0
94733S_L/GOLDEN_39,0
94733S_CHAMPAGNE_40,0
94733S_L/GOLDEN_40,0
94733S_L/GOLDEN_41,0
94734S_GRAY_36,0
94734S_L/GOLDEN_36,0
94734S_GRAY_37,0
94734S_L/GOLDEN_37,0
94734S_GRAY_38,0
94734S_L/GOLDEN_38,0
94734S_GRAY_39,0
94734S_L/GOLDEN_39,0
94734S_GRAY_40,0
94734S_L/GOLDEN_40,0
94734S_GRAY_41,0
94734S_L/GOLDEN_41,0
94777S_BROWN_36,0
94777S_BROWN_37,0
94777S_BROWN_38,0
94777S_BROWN_39,0
94777S_BROWN_40,0
94777S_BROWN_41,0
94781S_BLACK_36,2
94781S_BLACK_37,0
94781S_BLACK_38,0
94781S_BLACK_39,0
94781S_BLACK_40,0
94781S_BLACK_41,0
94791S_BEIGE_36,0
94791S_BEIGE_37,2
94791S_BEIGE_38,0
94791S_BEIGE_39,0
94791S_BEIGE_40,0
94791S_BEIGE_41,1
94791S_BEIGE_42,0
94791S_BEIGE_43,0
94802S_BEIGE_36,1
94802S_BLACK_36,2
94802S_BEIGE_37,3
94802S_BLACK_37,1
94802S_BEIGE_38,0
94802S_BLACK_38,1
94802S_BEIGE_39,1
94802S_BLACK_39,2
94802S_BEIGE_40,0
94802S_BLACK_40,2
94802S_BEIGE_41,0
94802S_BLACK_41,1
94802S_BEIGE_42,0
94802S_BLACK_42,0
94802S_BEIGE_43,0
94802S_BLACK_43,0
94803S_BEIGE_36,0
94803S_BLACK_36,1
94803S_BEIGE_37,0
94803S_BLACK_37,4
94803S_BEIGE_38,1
94803S_BLACK_38,1
94803S_BEIGE_39,0
94803S_BLACK_39,0
94803S_BEIGE_40,0
94803S_BLACK_40,0
94803S_BEIGE_41,0
94803S_BLACK_41,0
94803S_BEIGE_42,0
94803S_BLACK_42,0
94803S_BEIGE_43,0
94803S_BLACK_43,0
34569S_BLACK_35,0
34569S_FOWN_35,0
34569S_WHITE_35,0
34569S_BLACK_36,0
34569S_FOWN_36,0
34569S_PEACH_36,0
34569S_WHITE_36,0
34569S_BLACK_37,0
34569S_FOWN_37,0
34569S_PEACH_37,0
34569S_WHITE_37,0
34569S_BLACK_38,0
34569S_FOWN_38,0
34569S_PEACH_38,0
34569S_WHITE_38,0
34569S_BLACK_39,0
34569S_FOWN_39,0
34569S_PEACH_39,0
34569S_BLACK_40,0
34569S_FOWN_40,0
34569S_PEACH_40,0
34569S_WHITE_40,0
34569S_BLACK_41,0
34569S_FOWN_41,0
34569S_WHITE_41,0
34569S_BLACK_42,0
34569S_FOWN_42,0
34569S_PEACH_42,0
34569S_WHITE_42,0
93988S_GOLDEN_35,0
93988S_PEACH_35,0
93988S_GOLDEN_36,3
93988S_PEACH_36,0
93988S_GOLDEN_37,1
93988S_PEACH_37,0
93988S_GOLDEN_38,0
93988S_PEACH_38,0
93988S_GOLDEN_39,0
93988S_PEACH_39,0
93988S_GOLDEN_40,0
93988S_PEACH_40,0
93988S_GOLDEN_41,0
93988S_PEACH_41,0
93988S_GOLDEN_42,0
93988S_PEACH_42,0
93988S_GOLDEN_43,0
93988S_PEACH_43,0
94004S_BLACK_35,0
94004S_CAMEL_35,0
94004S_BEIGE_36,0
94004S_BLACK_36,0
94004S_CAMEL_36,0
94004S_BEIGE_37,0
94004S_BLACK_37,0
94004S_CAMEL_37,0
94004S_BEIGE_38,0
94004S_BLACK_38,0
94004S_CAMEL_38,0
94004S_BEIGE_39,0
94004S_BLACK_39,0
94004S_CAMEL_39,0
94004S_BEIGE_40,0
94004S_BLACK_40,0
94004S_CAMEL_40,0
94004S_BEIGE_41,0
94004S_BLACK_41,0
94004S_CAMEL_41,0
72198S_BLACK_36,0
72198S_GOLDEN_36,0
72198S_PEACH_36,0
72198S_BLACK_37,0
72198S_GOLDEN_37,0
72198S_PEACH_37,0
72198S_BLACK_38,0
72198S_GOLDEN_38,0
72198S_PEACH_38,0
72198S_BLACK_39,0
72198S_GOLDEN_39,0
72198S_PEACH_39,0
72198S_BLACK_40,0
72198S_GOLDEN_40,0
72198S_PEACH_40,0
72198S_BLACK_41,0
72198S_GOLDEN_41,0
72198S_PEACH_41,0
72198S_BLACK_42,0
72198S_GOLDEN_42,0
72198S_PEACH_42,0
72198S_BLACK_43,0
72198S_GOLDEN_43,0
72198S_PEACH_43,0
72127S_BROWN_36,0
72127S_GOLDEN_36,0
72127S_PEACH_36,0
72127S_BROWN_37,0
72127S_GOLDEN_37,0
72127S_BROWN_38,0
72127S_GOLDEN_38,0
72127S_BROWN_39,0
72127S_GOLDEN_39,0
72127S_BROWN_40,1
72127S_GOLDEN_40,2
72127S_BROWN_41,0
72127S_GOLDEN_41,0
72106S_BLACK_36,0
72106S_BROWN_36,1
72106S_GOLDEN_36,0
72106S_PEACH_36,0
72106S_BLACK_37,2
72106S_BROWN_37,0
72106S_GOLDEN_37,0
72106S_PEACH_37,0
72106S_BLACK_38,0
72106S_BROWN_38,0
72106S_GOLDEN_38,0
72106S_PEACH_38,0
72106S_BLACK_39,0
72106S_BROWN_39,0
72106S_GOLDEN_39,1
72106S_PEACH_39,0
72106S_BLACK_40,2
72106S_BROWN_40,0
72106S_GOLDEN_40,0
72106S_PEACH_40,0
72106S_BLACK_41,1
72106S_BROWN_41,0
72106S_GOLDEN_41,0
72106S_PEACH_41,0
72106S_BLACK_42,0
72106S_BROWN_42,0
72106S_GOLDEN_42,0
72106S_PEACH_42,0
72106S_BLACK_43,0
72106S_BROWN_43,0
72106S_GOLDEN_43,0
72106S_PEACH_43,0
94107S_BROWN_36,0
94107S_GOLDEN_36,0
94107S_L/GOLDEN_36,0
94107S_SILVER_36,0
94107S_BROWN_37,0
94107S_GOLDEN_37,0
94107S_L/GOLDEN_37,0
94107S_SILVER_37,0
94107S_BROWN_38,0
94107S_GOLDEN_38,0
94107S_L/GOLDEN_38,0
94107S_SILVER_38,0
94107S_BROWN_39,0
94107S_GOLDEN_39,0
94107S_L/GOLDEN_39,0
94107S_SILVER_39,0
94107S_BROWN_40,0
94107S_GOLDEN_40,0
94107S_L/GOLDEN_40,0
94107S_SILVER_40,0
94107S_BROWN_41,0
94107S_GOLDEN_41,0
94107S_L/GOLDEN_41,0
94107S_SILVER_41,0
94361S_MAHROON_36,0
94361S_MAHROON_37,1
94361S_MAHROON_38,1
94361S_MAHROON_39,2
94361S_MAHROON_40,1
94361S_MAHROON_41,0
94155S_BEIGE_36,0
94155S_BLACK_36,0
94155S_BLACK_37,2
94155S_BLACK_38,0
94155S_BLACK_39,1
94155S_BLACK_40,1
94155S_BLACK_41,1
94158S_BLACK_36,0
94158S_COFFEE_36,0
94158S_BLACK_37,0
94158S_COFFEE_37,0
94158S_BLACK_38,0
94158S_COFFEE_38,0
94158S_BLACK_39,0
94158S_COFFEE_39,0
94158S_BLACK_40,0
94158S_COFFEE_40,0
94158S_BLACK_41,0
94158S_COFFEE_41,0
94285S_BEIGE_36,0
94285S_NAVY_36,0
94285S_BEIGE_37,1
94285S_NAVY_37,1
94285S_BEIGE_38,0
94285S_NAVY_38,0
94285S_BEIGE_39,1
94285S_NAVY_39,0
94285S_BEIGE_40,1
94285S_NAVY_40,0
94285S_BEIGE_41,1
94285S_NAVY_41,0
94286S_MAHROON_36,0
94286S_MAHROON_37,0
94286S_MAHROON_38,0
94286S_MAHROON_39,1
94286S_MAHROON_40,2
94286S_MAHROON_41,0
94117S_BLACK_36,4
94117S_CHAMPAGNE_36,0
94117S_GOLDEN_36,0
94117S_BLACK_37,0
94117S_CHAMPAGNE_37,0
94117S_GOLDEN_37,0
94117S_BLACK_38,4
94117S_CHAMPAGNE_38,0
94117S_GOLDEN_38,0
94117S_BLACK_39,6
94117S_CHAMPAGNE_39,0
94117S_GOLDEN_39,0
94117S_BLACK_40,1
94117S_CHAMPAGNE_40,0
94117S_GOLDEN_40,0
94117S_BLACK_41,0
94117S_CHAMPAGNE_41,0
94117S_GOLDEN_41,0
94377S_KHAKI_36,0
94377S_KHAKI_37,0
94377S_KHAKI_38,0
94377S_KHAKI_39,1
94377S_KHAKI_40,0
94377S_KHAKI_41,0
34879S_BLACK_36,0
34879S_BLACK_37,0
34879S_BLACK_38,0
34879S_BLACK_39,0
34879S_BLACK_40,0
34879S_BLACK_41,0
34879S_BLACK_42,0
34879S_BLACK_43,0
34895S_GOLDEN_36,0
34895S_GOLDEN_37,0
34895S_GOLDEN_38,0
34895S_GOLDEN_39,0
34895S_GOLDEN_40,0
34895S_GOLDEN_41,0
34895S_GOLDEN_42,0
34895S_GOLDEN_43,0
34887S_SILVER_36,0
34887S_SILVER_37,0
34887S_SILVER_38,0
34887S_SILVER_39,0
34887S_SILVER_40,0
34887S_SILVER_41,0
34887S_SILVER_42,0
34887S_SILVER_43,0
34901S_GRAY_36,0
34901S_GRAY_37,0
34901S_GRAY_38,0
34901S_GRAY_39,0
34901S_GRAY_40,0
34901S_GRAY_41,0
34901S_GRAY_42,0
34901S_GRAY_43,0
34925S_BLACK_36,0
34925S_FOWN_36,0
34925S_BLACK_37,0
34925S_FOWN_37,0
34925S_BLACK_38,0
34925S_FOWN_38,0
34925S_BLACK_39,0
34925S_FOWN_39,0
34925S_BLACK_40,0
34925S_FOWN_40,0
34925S_BLACK_41,0
34925S_FOWN_41,0
34925S_BLACK_42,0
34925S_FOWN_42,0
34925S_BLACK_43,0
34925S_FOWN_43,0
34904S_BROWN_36,0
34904S_FOWN_36,0
34904S_WHITE_36,0
34904S_BROWN_37,0
34904S_FOWN_37,0
34904S_BROWN_38,0
34904S_FOWN_38,0
34904S_BROWN_39,0
34904S_FOWN_39,0
34904S_BROWN_40,0
34904S_FOWN_40,0
34904S_BROWN_41,0
34904S_FOWN_41,0
34904S_BROWN_42,0
34904S_FOWN_42,0
34904S_BROWN_43,0
34904S_FOWN_43,0
34712S_BLACK_36,0
34712S_BROWN_36,0
34712S_GOLDEN_36,0
34712S_SILVER_36,0
34712S_BLACK_37,0
34712S_BROWN_37,0
34712S_GOLDEN_37,0
34712S_SILVER_37,0
34712S_BLACK_38,0
34712S_BROWN_38,0
34712S_GOLDEN_38,0
34712S_SILVER_38,0
34712S_BLACK_39,0
34712S_BROWN_39,0
34712S_GOLDEN_39,0
34712S_SILVER_39,0
34712S_BLACK_40,0
34712S_BROWN_40,0
34712S_GOLDEN_40,0
34712S_SILVER_40,0
34712S_BLACK_41,0
34712S_BROWN_41,0
34712S_GOLDEN_41,0
34712S_SILVER_41,0
34712S_BLACK_42,0
34712S_BROWN_42,0
34712S_GOLDEN_42,0
34712S_SILVER_42,1
34712S_BLACK_43,0
34712S_BROWN_43,0
34712S_GOLDEN_43,0
34712S_SILVER_43,0
34751S_BLACK_36,0
34751S_GOLDEN_36,0
34751S_GRAY_36,0
34751S_PEACH_36,0
34751S_SILVER_36,0
34751S_WHITE_36,0
34751S_BLACK_37,0
34751S_GOLDEN_37,0
34751S_GRAY_37,0
34751S_PEACH_37,0
34751S_SILVER_37,0
34751S_WHITE_37,0
34751S_BLACK_38,0
34751S_GOLDEN_38,0
34751S_GRAY_38,0
34751S_PEACH_38,0
34751S_SILVER_38,0
34751S_WHITE_38,0
34751S_BLACK_39,0
34751S_GOLDEN_39,2
34751S_GRAY_39,0
34751S_SILVER_39,0
34751S_WHITE_39,0
34751S_BLACK_40,0
34751S_GOLDEN_40,0
34751S_GRAY_40,0
34751S_PEACH_40,0
34751S_SILVER_40,0
34751S_WHITE_40,0
34751S_BLACK_41,0
34751S_GOLDEN_41,0
34751S_GRAY_41,0
34751S_PEACH_41,0
34751S_SILVER_41,0
34751S_WHITE_41,0
34751S_BLACK_42,0
34751S_GOLDEN_42,0
34751S_GRAY_42,0
34751S_PEACH_42,0
34751S_SILVER_42,0
34751S_WHITE_42,0
34751S_BLACK_43,0
34751S_GOLDEN_43,0
34751S_GRAY_43,0
34751S_PEACH_43,0
34751S_SILVER_43,0
34751S_WHITE_43,0
34774S_MAHROON_36,0
34774S_MAHROON_37,0
34774S_MAHROON_38,0
34774S_MAHROON_39,0
34774S_MAHROON_40,0
34774S_MAHROON_41,0
34774S_MAHROON_42,0
34774S_MAHROON_43,0
34769S_BLACK_36,0
34769S_BROWN_36,0
34769S_FOWN_36,1
34769S_PEACH_36,0
34769S_SILVER_36,0
34769S_SILVER_37,0
34769S_SILVER_38,0
34769S_SILVER_39,0
34769S_SILVER_40,2
34769S_SILVER_41,0
34765S_BROWN_36,0
34765S_D/MAHROON_36,0
34765S_GOLDEN_36,0
34765S_GRAY_36,2
34765S_GREEN_36,1
34765S_MAHROON_36,0
34765S_PEACH_36,0
34765S_SILVER_36,2
34765S_GOLDEN_37,0
34765S_MAHROON_37,0
34765S_GOLDEN_38,0
34765S_MAHROON_38,0
34765S_GOLDEN_39,0
34765S_MAHROON_39,0
34765S_GOLDEN_40,0
34765S_MAHROON_40,0
34765S_GOLDEN_41,0
34765S_MAHROON_41,0
34765S_GOLDEN_42,0
34765S_MAHROON_42,0
34766S_BLACK_36,0
34766S_BROWN_36,0
34766S_D/MAHROON_36,0
34766S_GOLDEN_36,0
34766S_GREEN_36,0
34766S_MAHROON_36,0
34766S_PEACH_36,0
34766S_SILVER_36,0
34766S_BLACK_37,0
34766S_BROWN_37,0
34766S_D/MAHROON_37,0
34766S_GOLDEN_37,0
34766S_GREEN_37,0
34766S_MAHROON_37,0
34766S_PEACH_37,0
34766S_SILVER_37,0
34766S_BLACK_38,0
34766S_BROWN_38,0
34766S_D/MAHROON_38,0
34766S_GOLDEN_38,0
34766S_GREEN_38,0
34766S_MAHROON_38,0
34766S_PEACH_38,0
34766S_SILVER_38,0
34766S_BLACK_39,0
34766S_BROWN_39,0
34766S_D/MAHROON_39,0
34766S_GOLDEN_39,0
34766S_GREEN_39,0
34766S_MAHROON_39,0
34766S_PEACH_39,0
34766S_SILVER_39,0
34766S_BLACK_40,0
34766S_BROWN_40,0
34766S_D/MAHROON_40,0
34766S_GOLDEN_40,0
34766S_GREEN_40,0
34766S_MAHROON_40,0
34766S_PEACH_40,0
34766S_SILVER_40,0
34766S_BLACK_41,0
34766S_BROWN_41,0
34766S_D/MAHROON_41,0
34766S_GOLDEN_41,0
34766S_GREEN_41,0
34766S_MAHROON_41,0
34766S_PEACH_41,0
34766S_SILVER_41,0
34766S_BLACK_42,0
34766S_BROWN_42,0
34766S_D/MAHROON_42,0
34766S_GOLDEN_42,0
34766S_GREEN_42,0
34766S_MAHROON_42,0
34766S_PEACH_42,0
34766S_SILVER_42,0
34766S_BLACK_43,0
34766S_BROWN_43,0
34766S_D/MAHROON_43,0
34766S_GOLDEN_43,0
34766S_GREEN_43,0
34766S_MAHROON_43,0
34766S_PEACH_43,0
34766S_SILVER_43,0
34767S_BLACK_36,0
34767S_BROWN_36,0
34767S_D/MAHROON_36,0
34767S_GOLDEN_36,0
34767S_GREEN_36,0
34767S_GREY_36,0
34767S_MAHROON_36,0
34767S_PEACH_36,0
34767S_SILVER_36,0
34767S_BLACK_37,0
34767S_BROWN_37,0
34767S_D/MAHROON_37,0
34767S_GOLDEN_37,0
34767S_GREEN_37,0
34767S_GREY_37,0
34767S_MAHROON_37,0
34767S_PEACH_37,0
34767S_SILVER_37,0
34767S_BLACK_38,0
34767S_BROWN_38,0
34767S_D/MAHROON_38,0
34767S_GOLDEN_38,0
34767S_GREEN_38,0
34767S_GREY_38,0
34767S_MAHROON_38,0
34767S_PEACH_38,0
34767S_SILVER_38,0
34767S_BLACK_39,0
34767S_BROWN_39,0
34767S_D/MAHROON_39,0
34767S_GOLDEN_39,0
34767S_GREEN_39,0
34767S_GREY_39,0
34767S_MAHROON_39,0
34767S_PEACH_39,0
34767S_SILVER_39,0
34767S_BLACK_40,0
34767S_BROWN_40,0
34767S_D/MAHROON_40,0
34767S_GOLDEN_40,0
34767S_GREEN_40,0
34767S_GREY_40,0
34767S_MAHROON_40,0
34767S_PEACH_40,0
34767S_SILVER_40,0
34767S_BLACK_41,0
34767S_BROWN_41,0
34767S_D/MAHROON_41,0
34767S_GOLDEN_41,0
34767S_GREEN_41,0
34767S_GREY_41,0
34767S_MAHROON_41,0
34767S_PEACH_41,0
34767S_SILVER_41,0
34805S_GOLDEN_36,0
34805S_GREEN_36,0
34805S_GOLDEN_37,0
34805S_GREEN_37,0
34805S_GOLDEN_38,0
34805S_GREEN_38,0
34805S_GOLDEN_39,0
34805S_GREEN_39,0
34805S_GOLDEN_40,0
34805S_GREEN_40,0
34805S_GOLDEN_41,0
34805S_GREEN_41,0
34805S_GOLDEN_42,0
34805S_GREEN_42,0
34805S_GOLDEN_43,0
34805S_GREEN_43,0
34790S_WHITE_36,0
34790S_WHITE_37,0
34790S_WHITE_38,0
34790S_WHITE_39,0
34790S_WHITE_40,0
34790S_WHITE_41,0
34790S_WHITE_42,0
34790S_WHITE_43,0
95466S_SILVER_36,2
95466S_SILVER_37,3
95466S_SILVER_38,4
95466S_SILVER_39,3
95466S_SILVER_40,0
95466S_SILVER_41,2
95572S_GOLDEN_36,1
95572S_PINK_36,0
95572S_GOLDEN_37,0
95572S_PINK_37,3
95572S_GOLDEN_38,2
95572S_PINK_38,3
95572S_GOLDEN_39,4
95572S_PINK_39,1
95572S_GOLDEN_40,2
95572S_PINK_40,0
95572S_GOLDEN_41,1
95572S_PINK_41,1
95457S_BLACK_36,0
95457S_GOLDEN_36,0
95457S_BLACK_37,1
95457S_GOLDEN_37,0
95457S_BLACK_38,2
95457S_GOLDEN_38,2
95457S_BLACK_39,1
95457S_GOLDEN_39,0
95457S_BLACK_40,0
95457S_GOLDEN_40,0
95457S_BLACK_41,0
95457S_GOLDEN_41,0
95420S_WHITE_36,0
95420S_WHITE_37,0
95420S_WHITE_38,0
95420S_WHITE_39,1
95420S_WHITE_40,0
95420S_WHITE_41,0
95584S_BEIGE_36,2
95584S_BLACK_36,1
95584S_BEIGE_37,3
95584S_BLACK_37,0
95584S_BEIGE_38,2
95584S_BLACK_38,2
95584S_BEIGE_39,2
95584S_BLACK_39,4
95584S_BEIGE_40,3
95584S_BLACK_40,1
95584S_BEIGE_41,0
95584S_BLACK_41,1
95586S_GOLDEN_36,0
95586S_WHITE_36,0
95586S_GOLDEN_37,0
95586S_WHITE_37,0
95586S_GOLDEN_38,0
95586S_WHITE_38,0
95586S_GOLDEN_39,0
95586S_WHITE_39,0
95586S_GOLDEN_40,0
95586S_WHITE_40,0
95586S_GOLDEN_41,0
95586S_WHITE_41,0
95218S_BLACK_36,0
95218S_BLACK_37,0
95218S_BLACK_38,0
95218S_BLACK_39,0
95218S_BLACK_40,2
95218S_BLACK_41,0
95017S_BLACK_36,0
95017S_BLACK_37,3
95017S_BLACK_38,2
95017S_BLACK_39,4
95017S_BLACK_40,0
95017S_BLACK_41,0
94934S_GOLDEN_36,0
94934S_GOLDEN_37,2
94934S_GOLDEN_38,6
94934S_GOLDEN_39,2
94934S_GOLDEN_40,0
94934S_GOLDEN_41,0
95191S_BROWN_36,0
95191S_BROWN_37,0
95191S_BROWN_38,0
95191S_BROWN_39,2
95191S_BROWN_40,0
95191S_BROWN_41,0
95151S_L/GOLDEN_36,0
95151S_L/GOLDEN_37,0
95151S_L/GOLDEN_38,0
95151S_L/GOLDEN_39,0
95151S_L/GOLDEN_40,0
95151S_L/GOLDEN_41,0
95235S_BLACK_36,0
95235S_BLACK_37,0
95235S_BLACK_38,1
95235S_BLACK_39,0
95235S_BLACK_40,1
95235S_BLACK_41,0
95277S_BEIGE_36,0
95277S_BEIGE_37,3
95277S_BEIGE_38,1
95277S_BEIGE_39,1
95277S_BEIGE_40,1
95277S_BEIGE_41,0
95266S_BEIGE_36,0
95266S_BEIGE_37,2
95266S_BEIGE_38,0
95266S_BEIGE_39,2
95266S_BEIGE_40,0
95266S_BEIGE_41,0
95251S_GOLDEN_36,0
95251S_GOLDEN_37,0
95251S_GOLDEN_38,4
95251S_GOLDEN_39,0
95251S_GOLDEN_40,0
95251S_GOLDEN_41,0
95258S_L/GOLDEN_36,0
95258S_L/GOLDEN_37,0
95258S_L/GOLDEN_38,2
95258S_L/GOLDEN_39,0
95258S_L/GOLDEN_40,1
95258S_L/GOLDEN_41,0
94617S_COFFEE_36,0
94617S_FOWN_36,0
94617S_COFFEE_37,0
94617S_FOWN_37,0
94617S_COFFEE_38,0
94617S_FOWN_38,0
94617S_COFFEE_39,0
94617S_FOWN_39,0
94617S_COFFEE_40,0
94617S_FOWN_40,0
94617S_COFFEE_41,0
94617S_FOWN_41,0
94488S_BLACK_36,0
94488S_BLACK_37,0
94488S_BLACK_38,1
94488S_BLACK_39,0
94488S_BLACK_40,0
94488S_BLACK_41,0
94703S_GOLDEN_36,3
94703S_PEWTER_36,3
94703S_GOLDEN_37,2
94703S_PEWTER_37,3
94703S_GOLDEN_38,3
94703S_PEWTER_38,7
94703S_PEWTER_39,1
94703S_GOLDEN_40,0
94703S_GOLDEN_41,0
94703S_PEWTER_41,0
95607S_BEIGE_36,1
95607S_BEIGE_37,2
95607S_BEIGE_38,2
95607S_BEIGE_39,2
95607S_BEIGE_40,2
95607S_BEIGE_41,0
95519S_COFFEE_36,0
95519S_COFFEE_37,2
95519S_COFFEE_38,2
95519S_COFFEE_39,1
95519S_COFFEE_40,0
95519S_COFFEE_41,2
95521S_MAHROON_36,0
95521S_MAHROON_37,9
95521S_MAHROON_38,5
95521S_MAHROON_39,1
95521S_MAHROON_40,2
95521S_MAHROON_41,2
95535S_APRICOT_36,3
95535S_APRICOT_37,5
95535S_APRICOT_38,4
95535S_APRICOT_39,2
95535S_APRICOT_40,0
95535S_APRICOT_41,1
95541S_APRICOT_36,2
95541S_APRICOT_37,5
95541S_APRICOT_38,2
95541S_APRICOT_39,0
95541S_APRICOT_40,1
95541S_APRICOT_41,0
95554S_FOWN_36,2
95554S_FOWN_37,5
95554S_FOWN_38,5
95554S_FOWN_39,6
95554S_FOWN_40,7
95554S_FOWN_41,1
95372S_GRAY_36,0
95372S_GRAY_37,5
95372S_GRAY_38,2
95372S_GRAY_39,0
95372S_GRAY_40,1
95372S_GRAY_41,0
94108S_BLACK_36,0
94108S_BROWN_36,1
94108S_GOLDEN_36,4
94108S_BLACK_37,0
94108S_BROWN_37,2
94108S_GOLDEN_37,2
94108S_BLACK_38,0
94108S_BROWN_38,2
94108S_GOLDEN_38,1
94108S_BLACK_39,0
94108S_BROWN_39,3
94108S_GOLDEN_39,3
94108S_BLACK_40,0
94108S_BROWN_40,1
94108S_GOLDEN_40,1
94108S_BLACK_41,0
94108S_BROWN_41,0
94108S_GOLDEN_41,0
94121S_GOLDEN_36,0
94121S_GOLDEN_37,1
94121S_GOLDEN_38,0
94121S_GOLDEN_39,2
94121S_GOLDEN_40,0
94121S_GOLDEN_41,0
94113S_L/GOLDEN_36,5
94113S_L/GOLDEN_37,8
94113S_L/GOLDEN_38,3
94113S_L/GOLDEN_39,4
94113S_L/GOLDEN_40,1
94113S_L/GOLDEN_41,0
95631S_BLACK_36,2
95631S_BLACK_37,8
95631S_BLACK_38,5
95631S_BLACK_39,4
95631S_BLACK_40,2
95631S_BLACK_41,2
95637S_BEIGE_36,0
95637S_BLACK_36,0
95637S_BEIGE_37,2
95637S_BLACK_37,1
95637S_BEIGE_38,1
95637S_BLACK_38,1
95637S_BEIGE_39,0
95637S_BLACK_39,0
95637S_BEIGE_40,0
95637S_BLACK_40,0
95637S_BEIGE_41,0
95637S_BLACK_41,0
95639S_BLACK_36,2
95639S_L/GOLDEN_36,2
95639S_BLACK_37,2
95639S_L/GOLDEN_37,5
95639S_BLACK_38,3
95639S_L/GOLDEN_38,2
95639S_BLACK_39,3
95639S_L/GOLDEN_39,2
95639S_BLACK_40,1
95639S_L/GOLDEN_40,1
95639S_BLACK_41,0
95639S_L/GOLDEN_41,0
95640S_GOLDEN_36,1
95640S_SILVER_36,1
95640S_GOLDEN_37,3
95640S_SILVER_37,1
95640S_GOLDEN_38,3
95640S_SILVER_38,2
95640S_GOLDEN_39,0
95640S_SILVER_39,0
95640S_GOLDEN_40,0
95640S_SILVER_40,0
95640S_GOLDEN_41,0
95640S_SILVER_41,0
95642S_BLACK_36,5
95642S_BLACK_37,5
95642S_BLACK_38,7
95642S_BLACK_39,5
95642S_BLACK_40,2
95642S_BLACK_41,0
95648S_PEWTER_36,1
95648S_PEWTER_37,2
95648S_PEWTER_38,4
95648S_PEWTER_39,4
95648S_PEWTER_40,4
95648S_PEWTER_41,0
95505S_GUN_36,2
95505S_GUN_37,6
95505S_GUN_38,0
95505S_GUN_39,5
95505S_GUN_40,3
95505S_GUN_41,2
95511S_GOLDEN_36,3
95511S_GOLDEN_37,3
95511S_GOLDEN_38,2
95511S_GOLDEN_39,1
95511S_GOLDEN_40,1
95576S_BEIGE_36,0
95576S_BEIGE_37,1
95576S_BEIGE_38,1
95576S_BEIGE_39,6
95576S_BEIGE_40,7
95576S_BEIGE_41,3
95696S_GOLDEN_36,1
95696S_GOLDEN_37,4
95696S_GOLDEN_38,2
95696S_GOLDEN_39,3
95696S_GOLDEN_40,3
95696S_GOLDEN_41,0
95488S_SILVER_36,2
95488S_SILVER_37,7
95488S_SILVER_38,3
95488S_SILVER_39,2
95488S_SILVER_40,2
95488S_SILVER_41,0
95382S_BLACK_36,0
95382S_BLACK_37,0
95382S_BLACK_38,2
95382S_BLACK_39,0
95382S_BLACK_40,1
95397S_GOLDEN_36,1
95397S_GOLDEN_37,0
95397S_GOLDEN_38,3
95397S_GOLDEN_39,3
95397S_GOLDEN_40,1
95404S_BLACK/SILVER_36,3
95404S_BLACK/SILVER_37,3
95404S_BLACK/SILVER_38,10
95404S_BLACK/SILVER_39,5
95404S_BLACK/SILVER_40,3
95428S_GOLDEN_36,1
95428S_GOLDEN_37,0
95428S_GOLDEN_38,2
95428S_GOLDEN_39,1
95428S_GOLDEN_40,0
95428S_GOLDEN_41,0
95430S_BLACK_36,4
95430S_BLACK_37,3
95430S_BLACK_38,7
95430S_BLACK_39,7
95430S_BLACK_40,1
95430S_BLACK_41,0
95432S_SILVER_36,3
95432S_SILVER_37,2
95432S_SILVER_38,3
95432S_SILVER_39,2
95432S_SILVER_40,0
95433S_GOLDEN_36,1
95433S_GOLDEN_37,3
95433S_GOLDEN_38,4
95433S_GOLDEN_39,1
95433S_GOLDEN_40,0
95434S_SILVER_36,3
95434S_SILVER_37,2
95434S_SILVER_38,3
95434S_SILVER_39,0
95434S_SILVER_40,0
95440S_GRAY_36,1
95440S_GRAY_37,0
95440S_GRAY_38,3
95440S_GRAY_39,1
95440S_GRAY_40,0
95442S_RED_36,1
95442S_RED_37,0
95442S_RED_38,2
95442S_RED_39,3
95442S_RED_40,3
95444S_NAVY_36,0
95444S_NAVY_37,0
95444S_NAVY_38,2
95444S_NAVY_39,1
95444S_NAVY_40,0
95614S_BLACK_36,2
95614S_BLACK_37,4
95614S_BLACK_38,5
95614S_BLACK_39,3
95614S_BLACK_40,1
95614S_BLACK_41,0
95615S_GOLDEN_36,0
95615S_GOLDEN_37,5
95615S_GOLDEN_38,8
95615S_GOLDEN_39,5
95615S_GOLDEN_40,2
95615S_GOLDEN_41,0
95616S_SILVER_36,2
95616S_SILVER_37,3
95616S_SILVER_38,4
95616S_SILVER_39,2
95616S_SILVER_40,0
95616S_SILVER_41,0
95619S_GOLDEN_36,0
95619S_GOLDEN_37,0
95619S_GOLDEN_38,1
95619S_GOLDEN_39,2
95619S_GOLDEN_40,0
95619S_GOLDEN_41,0
95624S_BLACK_36,1
95624S_GOLDEN_36,0
95624S_BLACK_37,5
95624S_GOLDEN_37,2
95624S_BLACK_38,5
95624S_GOLDEN_38,4
95624S_BLACK_39,3
95624S_GOLDEN_39,3
95624S_BLACK_40,1
95624S_GOLDEN_40,1
95624S_BLACK_41,0
95624S_GOLDEN_41,0
95626S_BLACK_36,3
95626S_BLACK_37,6
95626S_BLACK_38,7
95626S_BLACK_39,3
95626S_BLACK_40,2
95626S_BLACK_41,0
94659S_CHAMPAGNE_36,1
94659S_CHAMPAGNE_37,0
94659S_CHAMPAGNE_38,0
94659S_CHAMPAGNE_39,1
94659S_CHAMPAGNE_40,0
94659S_CHAMPAGNE_41,0
94854S_SILVER_36,1
94854S_SILVER_37,1
94854S_SILVER_38,2
94854S_SILVER_39,2
94854S_SILVER_40,0
94854S_SILVER_41,0
94856S_MAHROON_36,2
94856S_MAHROON_37,0
94856S_MAHROON_38,0
94856S_MAHROON_39,0
94856S_MAHROON_40,0
94856S_MAHROON_41,0
95301S_BLACK_36,0
95301S_BLACK_37,0
95301S_BLACK_38,0
95301S_BLACK_39,2
95301S_BLACK_40,0
95301S_BLACK_41,0
95309S_PINK_36,1
95309S_PINK_37,0
95309S_PINK_38,3
95309S_PINK_39,0
95309S_PINK_40,0
95309S_PINK_41,0
95129S_BLACK_36,3
95129S_BLACK_37,5
95129S_BLACK_38,2
95129S_BLACK_39,1
95129S_BLACK_40,1
95129S_BLACK_41,0
95040S_BEIGE_36,2
95040S_BLACK_36,3
95040S_BEIGE_37,0
95040S_BLACK_37,0
95040S_BEIGE_38,4
95040S_BLACK_38,2
95040S_BEIGE_39,2
95040S_BLACK_39,2
95040S_BEIGE_40,2
95040S_BLACK_40,0
95040S_BEIGE_41,0
95040S_BLACK_41,0
95108S_BROWN_36,2
95108S_BROWN_37,5
95108S_BROWN_38,3
95108S_BROWN_39,1
95108S_BROWN_40,1
95108S_BROWN_41,0
95247S_BLACK_36,0
95247S_CAMEL_36,0
95247S_BLACK_37,0
95247S_CAMEL_37,0
95247S_CAMEL_38,1
95247S_CAMEL_39,1
95247S_CAMEL_40,0
95247S_CAMEL_41,2
95543S_BLACK_36,0
95543S_BLACK_37,3
95543S_BLACK_38,5
95543S_BLACK_39,4
95543S_BLACK_40,1
95543S_BLACK_41,1
95551S_GOLDEN_36,1
95551S_GOLDEN_37,1
95551S_GOLDEN_38,4
95551S_GOLDEN_39,2
95551S_GOLDEN_40,0
95551S_GOLDEN_41,1
95384S_BLACK_36,0
95384S_BLACK_37,2
95384S_BLACK_38,0
95384S_BLACK_39,0
95384S_BLACK_40,0
95384S_BLACK_41,0
95495S_D/GOLDEN_36,0
95495S_D/GOLDEN_37,1
95495S_D/GOLDEN_38,1
95495S_D/GOLDEN_39,4
95495S_D/GOLDEN_40,0
95495S_D/GOLDEN_41,0
95500S_GOLDEN_36,0
95500S_GOLDEN_37,0
95500S_GOLDEN_38,3
95500S_GOLDEN_39,5
95500S_GOLDEN_40,0
95500S_GOLDEN_41,0
95650S_DK/BLUE_36,2
95650S_DK/BLUE_37,5
95650S_DK/BLUE_38,5
95650S_DK/BLUE_39,9
95650S_DK/BLUE_40,6
95650S_DK/BLUE_41,0
95422S_BLACK_36,3
95422S_BLACK_37,1
95422S_BLACK_38,4
95422S_BLACK_39,2
95422S_BLACK_40,0
95422S_BLACK_41,0
95426S_SILVER_36,2
95426S_SILVER_37,1
95426S_SILVER_38,4
95426S_SILVER_39,1
95426S_SILVER_40,1
95426S_SILVER_41,0
94873S_BEIGE_36,0
94873S_BLACK_36,0
94873S_COFFEE_36,0
94873S_BEIGE_37,2
94873S_BLACK_37,0
94873S_COFFEE_37,0
94873S_BEIGE_38,0
94873S_BLACK_38,0
94873S_COFFEE_38,0
94873S_BEIGE_39,2
94873S_BLACK_39,0
94873S_COFFEE_39,0
94873S_BEIGE_40,2
94873S_BLACK_40,0
94873S_COFFEE_40,0
94873S_BEIGE_41,0
94873S_BLACK_41,0
94873S_COFFEE_41,0
94873S_BEIGE_42,0
94873S_BLACK_42,0
94873S_COFFEE_42,0
94873S_BEIGE_43,0
94873S_BLACK_43,0
94873S_COFFEE_43,0
94869S_COFFEE_36,0
94869S_D/BEIGE_36,0
94869S_COFFEE_37,0
94869S_D/BEIGE_37,0
94869S_COFFEE_38,1
94869S_D/BEIGE_38,0
94869S_COFFEE_39,0
94869S_D/BEIGE_39,0
94869S_COFFEE_40,1
94869S_D/BEIGE_40,2
94869S_COFFEE_41,2
94869S_D/BEIGE_41,0
94869S_COFFEE_42,0
94869S_D/BEIGE_42,0
94869S_COFFEE_43,0
94869S_D/BEIGE_43,0
95171S_GOLDEN_36,0
95171S_GOLDEN_37,1
95171S_GOLDEN_38,0
95171S_GOLDEN_39,0
95171S_GOLDEN_40,2
95171S_GOLDEN_41,0
95171S_GOLDEN_42,0
94978S_BEIGE_36,0
94978S_NAVY_36,0
94978S_BEIGE_37,2
94978S_NAVY_37,0
94978S_BEIGE_38,2
94978S_NAVY_38,0
94978S_BEIGE_39,3
94978S_NAVY_39,0
94978S_BEIGE_40,2
94978S_NAVY_40,0
94978S_BEIGE_41,2
94978S_NAVY_41,0
94888S_BLACK_36,0
94888S_BROWN_36,0
94888S_NAVY_36,0
94888S_BEIGE_37,2
94888S_BLACK_37,0
94888S_BROWN_37,0
94888S_NAVY_37,1
94888S_BEIGE_38,0
94888S_BLACK_38,0
94888S_BROWN_38,0
94888S_NAVY_38,0
94888S_BEIGE_39,0
94888S_BLACK_39,0
94888S_BROWN_39,0
94888S_NAVY_39,0
94888S_BEIGE_40,0
94888S_BLACK_40,0
94888S_BROWN_40,0
94888S_NAVY_40,0
94888S_BEIGE_41,0
94888S_BLACK_41,0
94888S_BROWN_41,0
94888S_NAVY_41,0
94888S_BEIGE_42,0
94888S_BLACK_42,0
94888S_BROWN_42,0
94888S_NAVY_42,0
94888S_BEIGE_43,0
94888S_BLACK_43,0
94888S_BROWN_43,0
94888S_NAVY_43,0
94889S_GRAY_36,0
94889S_L/BEIGE_36,0
94889S_GRAY_37,0
94889S_L/BEIGE_37,0
94889S_GRAY_38,0
94889S_L/BEIGE_38,0
94889S_GRAY_39,0
94889S_L/BEIGE_39,0
94889S_GRAY_40,0
94889S_L/BEIGE_40,0
94889S_GRAY_41,0
94889S_L/BEIGE_41,0
94889S_GRAY_42,0
94889S_L/BEIGE_42,0
94889S_GRAY_43,0
94889S_L/BEIGE_43,0
94890S_BLACK_36,1
94890S_KHAKI_36,1
94890S_BLACK_37,0
94890S_KHAKI_37,1
94890S_BLACK_38,0
94890S_KHAKI_38,0
94890S_BLACK_39,0
94890S_KHAKI_39,0
94890S_BLACK_40,0
94890S_KHAKI_40,0
94890S_BLACK_41,0
94890S_KHAKI_41,0
94890S_BLACK_42,0
94890S_KHAKI_42,0
94890S_BLACK_43,0
94890S_KHAKI_43,0
94900S_BLACK_36,0
94900S_KHAKI_36,0
94900S_BLACK_37,0
94900S_KHAKI_37,0
94900S_BLACK_38,0
94900S_KHAKI_38,0
94900S_BLACK_39,0
94900S_KHAKI_39,0
94900S_BLACK_40,0
94900S_KHAKI_40,0
94900S_BLACK_41,0
94900S_KHAKI_41,1
94900S_BLACK_42,0
94900S_KHAKI_42,0
94900S_BLACK_43,0
94900S_KHAKI_43,0
